<?xml version="1.0" encoding="UTF-8" standalone="no"?>
<svg
   xmlns:dc="http://purl.org/dc/elements/1.1/"
   xmlns:cc="http://creativecommons.org/ns#"
   xmlns:rdf="http://www.w3.org/1999/02/22-rdf-syntax-ns#"
   xmlns:svg="http://www.w3.org/2000/svg"
   xmlns="http://www.w3.org/2000/svg"
   xmlns:xlink="http://www.w3.org/1999/xlink"
   width="720"
   height="540"
   viewBox="0 0 720 540.00002"
   version="1.1"
   id="svg2319">
  <defs
     id="defs2313">
    <linearGradient
       xlink:href="#linearGradient2936"
       id="linearGradient1360-6"
       x1="136.81311"
       y1="173.91913"
       x2="167.58571"
       y2="126.60291"
       gradientUnits="userSpaceOnUse"
       gradientTransform="matrix(3.5308582,3.0053046,-3.0759426,3.637081,270.04725,-78.916238)" />
    <linearGradient
       id="linearGradient2936">
      <stop
         id="stop2932"
         offset="0"
         style="stop-color:#dfb14e;stop-opacity:1" />
      <stop
         id="stop2934"
         offset="1"
         style="stop-color:#b54047;stop-opacity:1" />
    </linearGradient>
    <linearGradient
       xlink:href="#linearGradient860"
       id="linearGradient862-2"
       x1="112.46608"
       y1="104.08393"
       x2="133.64702"
       y2="104.08393"
       gradientUnits="userSpaceOnUse"
       gradientTransform="matrix(4.1441198,0,0,4.260637,-233.43291,293.0737)" />
    <linearGradient
       id="linearGradient860">
      <stop
         style="stop-color:#dfb24f;stop-opacity:1"
         offset="0"
         id="stop856" />
      <stop
         style="stop-color:#d58b2f;stop-opacity:1"
         offset="1"
         id="stop858" />
    </linearGradient>
    <radialGradient
       xlink:href="#linearGradient1019"
       id="radialGradient3304-7"
       gradientUnits="userSpaceOnUse"
       gradientTransform="matrix(1.6030768,-0.03946564,0.10426583,5.2834785,-525.14224,-1304.2942)"
       cx="495.03906"
       cy="390.91138"
       fx="495.03906"
       fy="390.91138"
       r="10.743572" />
    <linearGradient
       id="linearGradient1019">
      <stop
         id="stop1015"
         offset="0"
         style="stop-color:#be5133;stop-opacity:1" />
      <stop
         id="stop1017"
         offset="1"
         style="stop-color:#81176b;stop-opacity:0" />
    </linearGradient>
    <linearGradient
       xlink:href="#linearGradient860"
       id="linearGradient878-8"
       x1="109.17788"
       y1="119.1124"
       x2="116.98858"
       y2="119.1124"
       gradientUnits="userSpaceOnUse"
       gradientTransform="matrix(4.1441198,0,0,4.260637,-233.43291,293.0737)" />
    <linearGradient
       xlink:href="#linearGradient912"
       id="linearGradient914-1"
       x1="124.89785"
       y1="118.32003"
       x2="144.10342"
       y2="118.32003"
       gradientUnits="userSpaceOnUse"
       gradientTransform="matrix(4.1441198,0,0,4.260637,-224.51674,292.67504)" />
    <linearGradient
       id="linearGradient912">
      <stop
         style="stop-color:#d99b3c;stop-opacity:1"
         offset="0"
         id="stop908" />
      <stop
         style="stop-color:#c96e35;stop-opacity:1"
         offset="1"
         id="stop910" />
    </linearGradient>
    <linearGradient
       xlink:href="#linearGradient2453"
       id="linearGradient1345-9"
       gradientUnits="userSpaceOnUse"
       x1="130.76288"
       y1="128.29868"
       x2="176.97937"
       y2="115.77173"
       gradientTransform="matrix(4.1441198,0,0,4.260637,-233.43291,293.0737)" />
    <linearGradient
       id="linearGradient2453">
      <stop
         id="stop2447"
         offset="0"
         style="stop-color:#d68e31;stop-opacity:1" />
      <stop
         id="stop2449"
         offset="0.82477462"
         style="stop-color:#be5133;stop-opacity:1" />
      <stop
         id="stop2451"
         offset="1"
         style="stop-color:#a3206d;stop-opacity:1" />
    </linearGradient>
    <radialGradient
       xlink:href="#linearGradient922"
       id="radialGradient3302-0"
       gradientUnits="userSpaceOnUse"
       gradientTransform="matrix(4.1458486,0,0,4.1458482,-233.6191,306.75673)"
       cx="146.95654"
       cy="147.13304"
       fx="146.95654"
       fy="147.13304"
       r="35" />
    <linearGradient
       id="linearGradient922">
      <stop
         style="stop-color:#9d1c6f;stop-opacity:1"
         offset="0"
         id="stop918" />
      <stop
         style="stop-color:#590f66;stop-opacity:1"
         offset="1"
         id="stop920" />
    </linearGradient>
    <linearGradient
       xlink:href="#linearGradient860"
       id="linearGradient854-0"
       x1="105.04161"
       y1="99.608566"
       x2="119.384"
       y2="99.608566"
       gradientUnits="userSpaceOnUse"
       gradientTransform="matrix(3.8699145,0,0,3.9787216,-200.75622,323.23075)" />
    <linearGradient
       y2="128.17346"
       x2="165.79822"
       y1="173.91913"
       x1="136.81311"
       gradientTransform="matrix(3.5308557,3.0053024,-3.0759403,3.6370783,270.04663,-661.43046)"
       gradientUnits="userSpaceOnUse"
       id="linearGradient1174"
       xlink:href="#linearGradient1346" />
    <linearGradient
       id="linearGradient1346">
      <stop
         style="stop-color:#ffe198;stop-opacity:1"
         offset="0"
         id="stop1339" />
      <stop
         style="stop-color:#ffbb4d;stop-opacity:1"
         offset="1"
         id="stop1343" />
    </linearGradient>
    <linearGradient
       gradientTransform="matrix(4.144117,0,0,4.2606338,-233.43321,-289.4407)"
       gradientUnits="userSpaceOnUse"
       y2="104.08393"
       x2="133.64702"
       y1="104.08393"
       x1="112.46608"
       id="linearGradient862-2-3"
       xlink:href="#linearGradient1160" />
    <linearGradient
       id="linearGradient1160">
      <stop
         style="stop-color:#fff9d1;stop-opacity:1"
         offset="0"
         id="stop1156" />
      <stop
         style="stop-color:#ffdc8e;stop-opacity:1"
         offset="1"
         id="stop1158" />
    </linearGradient>
    <radialGradient
       r="10.743572"
       fy="390.91138"
       fx="495.03906"
       cy="390.91138"
       cx="495.03906"
       gradientTransform="matrix(1.6030756,-0.0394656,0.1042658,5.2834746,-525.14231,-1886.8075)"
       gradientUnits="userSpaceOnUse"
       id="radialGradient3304-7-6"
       xlink:href="#linearGradient1172" />
    <linearGradient
       id="linearGradient1172">
      <stop
         id="stop1168"
         offset="0"
         style="stop-color:#ff9912;stop-opacity:1" />
      <stop
         id="stop1170"
         offset="1"
         style="stop-color:#ff9810;stop-opacity:0" />
    </linearGradient>
    <linearGradient
       gradientTransform="matrix(4.144117,0,0,4.2606338,-233.43321,-289.4407)"
       gradientUnits="userSpaceOnUse"
       y2="119.1124"
       x2="116.98858"
       y1="119.1124"
       x1="109.17788"
       id="linearGradient878-8-7"
       xlink:href="#linearGradient1166" />
    <linearGradient
       id="linearGradient1166">
      <stop
         style="stop-color:#ffd782;stop-opacity:1"
         offset="0"
         id="stop1162" />
      <stop
         style="stop-color:#ffd57d;stop-opacity:1"
         offset="1"
         id="stop1164" />
    </linearGradient>
    <linearGradient
       gradientTransform="matrix(4.144117,0,0,4.2606338,-224.51711,-289.83926)"
       gradientUnits="userSpaceOnUse"
       y2="118.32003"
       x2="144.10342"
       y1="118.32003"
       x1="124.89785"
       id="linearGradient914-1-5"
       xlink:href="#linearGradient1154" />
    <linearGradient
       id="linearGradient1154">
      <stop
         style="stop-color:#ffe5a3;stop-opacity:1"
         offset="0"
         id="stop1150" />
      <stop
         style="stop-color:#ffd987;stop-opacity:1"
         offset="1"
         id="stop1152" />
    </linearGradient>
    <linearGradient
       gradientTransform="matrix(4.144117,0,0,4.2606338,-233.43321,-289.4407)"
       y2="115.77173"
       x2="176.97937"
       y1="129.18776"
       x1="130.21443"
       gradientUnits="userSpaceOnUse"
       id="linearGradient1345-9-3"
       xlink:href="#linearGradient1148" />
    <linearGradient
       id="linearGradient1148">
      <stop
         id="stop1142"
         offset="0"
         style="stop-color:#ffe198;stop-opacity:1" />
      <stop
         id="stop1144"
         offset="0.73873258"
         style="stop-color:#ffd277;stop-opacity:1" />
      <stop
         id="stop1146"
         offset="1"
         style="stop-color:#ff8f00;stop-opacity:1" />
    </linearGradient>
    <radialGradient
       r="35"
       fy="147.13304"
       fx="146.95654"
       cy="147.13304"
       cx="146.95654"
       gradientTransform="matrix(4.1458455,0,0,4.1458451,-233.61941,-275.75765)"
       gradientUnits="userSpaceOnUse"
       id="radialGradient3302-0-5"
       xlink:href="#linearGradient1140" />
    <linearGradient
       id="linearGradient1140">
      <stop
         style="stop-color:#8baccb;stop-opacity:1"
         offset="0"
         id="stop1136" />
      <stop
         style="stop-color:#395477;stop-opacity:1"
         offset="1"
         id="stop1138" />
    </linearGradient>
    <linearGradient
       gradientTransform="matrix(3.8699117,0,0,3.9787189,-200.75651,-259.28385)"
       gradientUnits="userSpaceOnUse"
       y2="99.608566"
       x2="119.384"
       y1="99.608566"
       x1="105.04161"
       id="linearGradient854-0-6"
       xlink:href="#linearGradient1166" />
  </defs>
  <metadata
     id="metadata2316">
    <rdf:RDF>
      <cc:Work
         rdf:about="">
        <dc:format>image/svg+xml</dc:format>
        <dc:type
           rdf:resource="http://purl.org/dc/dcmitype/StillImage" />
        <dc:title></dc:title>
      </cc:Work>
    </rdf:RDF>
  </metadata>
  <g
     id="layer1"
     transform="translate(0,-582.5197)">
    <path
       style="fill:#ffffff;fill-opacity:1;stroke:none;stroke-width:1.15712166;stroke-miterlimit:4;stroke-dasharray:none;stroke-opacity:1"
       d="m 530.86129,845.21637 c 6.25018,0 11.28193,5.03175 11.28193,11.28194 v 25.5369 h 64.81124 c 6.25019,0 11.28194,5.03174 11.28194,11.28194 v 44.9605 h 10.80733 c 6.25019,0 11.28194,5.03175 11.28194,11.28194 v 12.14978 c 0,6.25019 -5.03175,11.28192 -11.28194,11.28192 H 416.71191 c -6.2502,0 -11.28194,-5.03173 -11.28194,-11.28192 v -12.14978 c 0,-6.25019 5.03174,-11.28194 11.28194,-11.28194 h 11.70004 v -81.77934 c 0,-6.25019 5.03174,-11.28194 11.28194,-11.28194 z"
       id="rect3099" />
    <path
       style="fill:#ffffff;fill-opacity:1;stroke:none;stroke-width:2;stroke-miterlimit:4;stroke-dasharray:none;stroke-opacity:1"
       d="m 224.30292,634.95519 c -20.221,0 -36.5,16.279 -36.5,36.5 v 3.66992 c -1.15206,-0.10868 -2.31856,-0.16992 -3.5,-0.16992 h -46 c -20.221,0 -36.5,16.279 -36.5,36.5 v 61 c 0,2.57297 0.26586,5.08009 0.76758,7.5 H 68.30292 c -10.803,0 -19.5,8.697 -19.5,19.5 0,10.803 8.697,19.5 19.5,19.5 h 357 c 10.803,0 19.5,-8.697 19.5,-19.5 0,-10.803 -8.697,-19.5 -19.5,-19.5 h -11.33789 c 0.54945,-2.52648 0.8457,-5.14986 0.8457,-7.8457 v -61 c 0,-20.221 -16.279,-36.5 -36.5,-36.5 h -6.50781 v -3.1543 c 0,-20.221 -16.279,-36.5 -36.5,-36.5 z"
       id="rect3076" />
    <ellipse
       style="fill:#000000;fill-opacity:0.14117647;stroke:none;stroke-width:2.16249704;stroke-miterlimit:4;stroke-dasharray:none;stroke-opacity:1"
       id="path3068"
       cx="355"
       cy="1106.0197"
       rx="125"
       ry="12.5" />
  </g>
  <path
     id="path832-5-2"
     d="m 210.77188,109.83531 c 17.38011,10.698 32.5901,21.06174 49.6444,24.05617 l -19.3933,32.43342 c -2.31612,-2.04563 -3.87412,-3.32619 -6.00449,-5.32587 -0.10313,-0.0987 -0.83394,0.99987 -1.33119,0.68143 -0.5025,-0.32125 0.67075,-1.24243 0.5825,-1.32518 -0.0731,-0.0687 -2.9015,2.229 -2.69656,1.03031 0.2675,-1.56344 1.58537,-1.43912 1.42943,-1.72631 -0.15625,-0.28688 -1.10899,0.21437 -1.16212,0.16312 -0.24375,-0.23125 0.91025,-1.07437 0.66869,-1.30581 -19.00974,-18.19374 -29.71254,-34.40141 -25.85636,-48.33128 0.0625,-0.22312 -2.57131,-3.99756 -1.31231,-3.94056 1.03006,0.0438 1.85037,2.64632 2.20025,2.57344 0.1325,-0.0438 -0.0719,-3.95256 0.42375,-3.92 1.07156,0.0687 1.46168,4.55769 1.83631,4.55387 0.415,-0.004 -0.66875,-2.92656 0.28062,-3.08899 1.13144,-0.19313 0.54625,2.36937 0.69,3.47256 z"
     style="fill:url(#linearGradient854-0-6);fill-opacity:1;stroke:none;stroke-width:1.0382086px;stroke-linecap:butt;stroke-linejoin:miter;stroke-opacity:1" />
  <path
     id="path916-1-9"
     d="m 358.08839,149.79616 c -80.13881,0 -145.10414,64.96539 -145.10426,145.10433 1.2e-4,80.13894 64.96545,145.10433 145.10426,145.10433 80.13888,0 145.10421,-64.96539 145.10433,-145.10433 -1.2e-4,-80.13894 -64.96545,-145.10433 -145.10433,-145.10433 z"
     style="fill:url(#radialGradient3302-0-5);fill-opacity:1;stroke:none;stroke-width:2.18731189;stroke-miterlimit:4;stroke-dasharray:none;stroke-opacity:1" />
  <path
     id="path826-7-1-1"
     d="m 247.42191,204.15912 c -3.37093,4.52875 -9.15493,12.26912 -8.58824,12.52843 0.3225,0.15 0.99537,-1.19788 1.28281,-0.99131 0.0662,0.0437 -2.61275,3.60899 -2.30893,3.90387 0.2475,0.24 1.00943,-1.54456 1.36318,-1.31569 0.47,0.30875 -7.56649,15.29912 -9.17274,20.34424 -1.002,3.14787 -0.0375,10.24799 5.43618,10.05086 5.52194,-0.20125 11.70949,-5.08412 13.16937,-10.56168 0.86331,-3.23874 3.86637,-8.81655 6.58131,-12.89099 -0.13375,3.65781 -0.54375,8.83156 -0.34063,12.45812 9.94799,7.27412 17.98936,5.80668 26.33092,-0.30437 0.75519,-0.55375 1.51162,-1.14513 2.27337,-1.77169 0.98469,-0.81044 1.97725,-1.67962 2.97912,-2.59975 0.42,-0.38562 0.14625,1.67356 0.57,1.26988 3.61406,-6.75856 10.21418,-12.28712 14.64493,-17.04599 3.27187,-3.51087 21.20074,-6.048 22.18923,-14.2543 0.002,-0.0437 0.002,-0.0687 0.004,-0.0944 3.41343,-0.55937 6.90837,-1.17981 10.46768,-1.84369 -12.69024,9.46368 -21.98399,18.10712 -21.83586,18.24043 0.18875,0.17125 0.72775,-0.49875 0.90556,-0.36875 0.0312,-4.4e-4 -2.77094,2.13212 -2.46231,2.38843 0.26437,0.22313 0.69544,-0.47687 0.97756,-0.27 0.34125,0.25313 -7.19756,9.828 -9.78668,14.24312 0,0 -6.28056,15.60255 4.64975,16.14768 14.7838,0.73756 12.69861,-10.28568 18.86711,-15.65356 6.52443,-5.67855 15.39799,-13.71042 23.86217,-21.45898 0.7235,-0.66256 -0.41625,3.84256 0.29937,3.186 2.588,-4.95431 4.9855,-8.02968 8.85475,-11.59799 0.89987,-0.82969 -0.688,4.25487 0.16875,3.46243 2.64599,-6.51899 7.33162,-10.79355 12.3348,-15.20311 45.52378,-7.51543 93.23281,-8.13131 117.67147,42.98653 8.92244,18.66298 13.79024,39.09341 14.26143,59.87439 5.83318,-59.37727 -8.26762,-119.63954 -43.14703,-156.95688 -0.4125,-0.44188 2.73619,1.083 2.31775,0.648 -1.289,-1.34019 -6.17112,-4.611 -7.51537,-5.88862 -0.82269,-0.78125 3.69681,2.01818 4.55456,1.27718 1.12487,-0.972 -9.43587,-5.68374 -10.65824,-6.69599 -0.42375,-0.35125 2.24025,1.098 3.82068,1.54412 1.03919,0.29125 1.29231,-0.30437 1.00831,-0.52875 -10.92018,-8.62155 -25.59767,-16.16786 -41.59065,-21.18511 -1.28013,-0.40312 4.92012,-0.26562 3.62437,-0.63643 -7.82056,-0.77057 -16.30249,-2.91282 -23.37311,-4.09144 -1.93069,-0.31687 8.55474,-2.66656 6.61875,-2.89925 -8.45406,1.03456 -17.6368,1.28569 -25.64367,1.19488 -71.4702,7.1788 -157.85901,28.67035 -125.66597,101.36161 z"
     style="opacity:0.2;fill:#011842;fill-opacity:1;stroke:none;stroke-width:1.06764281px;stroke-linecap:butt;stroke-linejoin:miter;stroke-opacity:1" />
  <path
     id="path826-0-2"
     d="m 371.80226,92.09483 c -23.72867,-0.36875 -45.90484,7.05343 -66.38964,13.87755 l 3.32156,90.52906 c 58.1189,-6.22587 145.65583,-39.46285 180.74312,37.88141 8.8993,19.61611 13.53817,40.98978 13.59442,62.63476 7.31412,-61.69664 -6.10655,-124.73134 -41.64034,-164.31244 -0.42062,-0.46875 2.82594,1.18375 2.39937,0.72256 -1.314,-1.42243 -6.32724,-4.93024 -7.70005,-6.28799 -0.84019,-0.83056 3.80693,2.17931 4.71543,1.42587 1.19144,-0.98831 -9.70693,-6.11612 -10.95843,-7.19568 -0.43375,-0.37312 2.30981,1.19138 3.94587,1.68813 1.07581,0.32562 1.35238,-0.29125 1.06138,-0.52938 -11.18906,-9.20399 -26.31173,-17.36899 -42.85747,-22.92667 -1.32438,-0.445 5.12706,-0.17563 3.78575,-0.585 -8.12606,-0.966 -16.91143,-3.37412 -24.24817,-4.74856 -2.00344,-0.37312 8.9623,-2.59756 6.95155,-2.88043 -8.82336,0.90043 -18.39011,0.96899 -26.72435,0.70712 z"
     style="fill:url(#linearGradient1345-9-3);fill-opacity:1;stroke:none;stroke-width:1.1117717px;stroke-linecap:butt;stroke-linejoin:miter;stroke-opacity:1" />
  <path
     id="path834-8-7"
     d="m 364.83251,173.17814 c -26.9466,10.536 -58.84814,38.66529 -58.57651,38.92029 0.19312,0.18437 0.76768,-0.50563 0.95012,-0.36875 0.0312,0 -2.93006,2.16124 -2.61406,2.43424 0.27062,0.23563 0.73381,-0.48062 1.02312,-0.25687 0.35,0.27 -7.69855,10.08087 -10.48649,14.6233 0,0 -6.86506,16.11343 4.50337,16.90924 15.3763,1.077 13.43687,-10.44256 19.9713,-15.90255 6.91137,-5.775 16.31768,-13.95255 25.29186,-21.84342 0.76718,-0.67413 -0.515,3.99299 0.24437,3.32443 2.798,-5.10343 5.35937,-8.25724 9.46231,-11.89155 0.95425,-0.84513 -0.80675,4.41512 0.10187,3.60856 3.75631,-8.74624 11.01424,-13.47124 17.96061,-19.69886"
     style="fill:url(#linearGradient914-1-5);fill-opacity:1;stroke:none;stroke-width:1.1117717px;stroke-linecap:butt;stroke-linejoin:miter;stroke-opacity:1" />
  <path
     id="path836-5-0"
     d="m 240.17779,193.28457 c -3.13787,4.06887 -11.1853,14.2633 -10.52968,14.57955 0.33313,0.16312 1.06075,-1.22825 1.35569,-1.00713 0.0681,0.05 -2.79512,3.70325 -2.48493,4.01656 0.25249,0.25688 1.08306,-1.587 1.44662,-1.341 0.48312,0.33 -8.19868,15.76974 -9.97643,20.98886 -1.10906,3.25625 -0.25438,10.66925 5.44993,10.578 5.75319,-0.0944 12.29862,-5.04856 13.93299,-10.72031 1.66044,-5.76212 10.06081,-18.72342 11.90668,-18.36211"
     style="fill:url(#linearGradient878-8-7);fill-opacity:1;stroke:none;stroke-width:1.1117717px;stroke-linecap:butt;stroke-linejoin:miter;stroke-opacity:1" />
  <path
     id="path828-5-0-9"
     d="m 318.62586,101.66907 c -4.47162,1.41431 -8.89087,2.86887 -13.21324,4.30843 l 3.32156,90.52394 c 5.47831,-0.75688 11.04274,-1.58144 16.64399,-2.36919 1.1525,-1.16912 1.93693,-2.49168 2.15225,-4.01956 3.14649,-23.93867 1.00956,-43.98809 -5.09906,-66.83476 0.63144,-1.29819 -0.7225,-10.80899 -3.8055,-21.60886 z"
     style="fill:url(#radialGradient3304-7-6);fill-opacity:1;stroke:none;stroke-width:1.11174059px;stroke-linecap:butt;stroke-linejoin:miter;stroke-opacity:1" />
  <path
     id="path828-6-3"
     d="m 270.24621,121.06006 c -17.32399,12.05743 -57.85933,35.94809 -23.97623,87.14093 -0.31875,1.602 -0.505,3.96425 -0.58313,6.98868 -0.0125,0.52875 0.525,-1.068 0.51813,-0.49875 -0.006,0.48375 -0.0188,1.02 -0.0375,1.59775 -0.005,0.16313 0.4125,-0.804 0.40687,-0.63687 -0.12937,3.753 -3.47243,11.18055 -0.69562,14.4073 8.37074,9.72724 18.60667,6.42 27.41898,0.23125 0.79781,-0.56062 1.59893,-1.16062 2.40512,-1.797 1.04206,-0.82243 2.0925,-1.70662 3.15487,-2.64387 0.44563,-0.39438 0.11625,1.74512 0.56625,1.33369 3.90394,-6.96044 10.89262,-12.57943 15.60512,-17.44112 3.47981,-3.58631 22.19729,-5.85299 23.39798,-14.37642 0.4275,-3.25156 -0.67138,-14.27012 0.0188,-14.32587 0.605,-0.05 0.20812,2.11631 0.9355,2.16175 0.8235,0.05 0.28625,-2.66575 0.40687,-2.65031 0.17063,0 1.10056,2.36356 1.291,2.36019 0.941,0 -2.152,-11.13518 -1.57937,-11.15231 0.742,0 0.60937,2.14244 1.54662,2.15312 0.4975,0 -4.51262,-15.50223 -3.23956,-15.47223 1.03338,0.0437 1.34144,2.93912 2.46825,3.19456 0.93,0.21 -4.36231,-23.00142 -6.56081,-31.62729 -0.0625,-0.23563 0.54188,-0.31688 0.68325,-0.53188 0.09,-0.13687 -0.34062,-0.43875 -0.16875,-0.50812 0.19625,-0.0813 0.78656,0.17125 0.84713,0.0437 0.21187,-0.42438 -1.47457,-0.92313 -1.15238,-1.42669 0.15438,-0.24 -0.025,-1.15112 0.15875,-1.44431 1.06138,-1.701 2.76256,-3.40025 2.11094,-3.52625 -0.72994,-0.14125 -1.58181,1.88525 -2.33756,1.86513 -0.38938,0 1.24893,-4.24669 0.90293,-4.31188 -0.82856,-0.15437 -1.82843,2.04732 -2.53799,2.39875 -0.22438,0.11125 1.13518,-2.01731 0.2175,-2.04087 -0.16688,-0.004 -0.97375,1.24669 -1.22407,0.64631 -2.79262,-6.69818 -11.57668,-43.62109 -23.6061,-48.07609 -0.23938,-0.09 0.16437,-3.26787 -0.55813,-3.31418 -0.2175,0 -0.99968,3.39262 -1.72118,3.21643 -0.704,-0.17125 -1.34557,-3.93168 -1.729,-3.53868 -0.4175,0.42875 0.05,3.15343 -0.20875,2.99999 -1.40256,-0.83912 -2.02681,-1.41687 -2.46194,-1.39543 -1.08887,0.0563 1.89619,1.99931 0.96238,2.59031 -0.46875,0.29562 -2.119,-0.26125 -2.55113,0.15437 -0.25437,0.24438 0.69675,1.42588 0.45438,1.70788 -8.92218,10.39024 -9.54793,45.5449 -9.54793,45.5449 z"
     style="fill:url(#linearGradient862-2-3);fill-opacity:1;stroke:none;stroke-width:1.1117717px;stroke-linecap:butt;stroke-linejoin:miter;stroke-opacity:1" />
  <path
     id="path838-4-6"
     d="m 242.79454,202.81556 c 1.39594,-0.36 2.64488,0.49 3.91594,1.15756 l -2.59425,0.70456 z"
     style="fill:#501616;stroke:none;stroke-width:1.1117717px;stroke-linecap:butt;stroke-linejoin:miter;stroke-opacity:1" />
  <path
     id="path840-6-0"
     d="m 260.46528,197.431 c 3.79618,-5.35331 7.12831,-11.34299 11.94362,-15.29911 l 1.46849,0.70456 c -4.98655,4.20212 -9.13036,9.4868 -13.41211,14.59455 z"
     style="fill:#501616;stroke:none;stroke-width:1.1117717px;stroke-linecap:butt;stroke-linejoin:miter;stroke-opacity:1" />
  <path
     id="path844-2-6"
     d="m 249.97422,226.90985 c -0.44062,-0.44312 -0.32125,-1.55575 0.0706,-2.04087 1.45325,-1.79956 2.27968,-3.23612 5.71431,-3.44487 0.38812,-0.0438 0.69831,0 1.07993,0.24 0.25438,0.17125 0.265,0.36 0.34063,0.67418 0.19062,0.79457 0.445,1.59125 0.0375,2.27313 -1.25644,2.10987 -0.17813,2.68368 -0.0375,3.40243 -0.18688,0.57188 -0.47,1.12456 -1.56637,1.50981 -2.61132,-0.10312 -3.85363,-0.81468 -5.64225,-2.61212 z"
     style="fill:#550000;stroke:none;stroke-width:1.1117717px;stroke-linecap:butt;stroke-linejoin:miter;stroke-opacity:1" />
  <path
     id="path846-5-2"
     d="m 258.31147,233.96754 -0.0794,-0.16313 c 4.40769,-2.02456 8.56868,-4.89425 12.70681,-7.84243 l 0.29562,0.4575 c -4.16681,2.71887 -8.31212,5.46856 -12.92268,7.54887 z"
     style="fill:#501616;stroke:none;stroke-width:1.1117717px;stroke-linecap:butt;stroke-linejoin:miter;stroke-opacity:1" />
  <path
     id="path1352-1-8-6"
     d="m 452.88401,323.85478 c -0.58062,-0.62656 -6.51599,-5.49687 -5.03312,-4.06418 6.03106,5.82774 3.62718,27.9896 -9.98143,44.46384 -11.09762,13.43443 -49.22821,26.55517 -66.02926,0.15 9.4108,4.96418 19.11086,5.89843 27.40304,4.38343 2.0735,-0.37687 -3.09056,-1.93543 -1.21956,-2.595 3.93968,-0.0437 7.35655,-0.43625 10.40868,-1.40399 0.89606,-0.28688 -3.66925,-0.25313 -2.83219,-0.64369 6.06612,-0.41125 9.83399,-3.08612 13.44355,-6.83875 15.14612,-22.95254 8.19331,-52.47121 -23.96329,-57.3102 -14.19793,-1.28231 -31.87691,4.32212 -48.99528,14.1338 -1.431,0.81944 4.428,0.4625 3.00725,1.33975 -10.14874,2.08243 -18.65492,8.63568 -25.66773,14.42999 -1.196,0.99256 6.39706,-0.56 5.23081,0.46812 -33.78223,18.22199 -53.47015,69.92482 -38.40922,92.82081 -9.94612,0.3 -24.16655,-0.6225 -31.61429,-1.44944 -13.06262,-1.44987 -22.68267,-7.77731 -33.28848,-16.10699 -2.16081,-1.77256 8.32068,4.32212 6.55381,2.259 -4.25575,-8.10387 -10.08087,-10.47343 -14.87986,-18.3013 -0.61,-1.25225 6.86355,5.27875 6.34599,3.97075 -1.74612,-11.55343 -8.5123,-24.81342 -9.29037,-35.95629 -0.0188,-2.23368 4.743,5.871 4.88075,3.58413 4.04562,-20.28936 13.60018,-31.85436 22.4793,-49.01566 1.38881,-1.46743 0.36687,6.456 1.87087,5.02325 44.40809,-42.31622 137.36546,-69.23307 176.22356,-41.23453 4.99743,4.91612 10.8998,7.72756 16.11442,12.69474 0.77688,0.81637 -5.34399,-2.93144 -4.57443,-2.052 4.48437,8.607 12.31818,12.72468 17.8938,20.49936 0.61687,1.01875 -6.23912,-4.06456 -5.62906,-2.99825 3.32225,5.80844 6.51599,12.37324 9.55249,19.74811 z"
     style="opacity:0.3;fill:#001842;fill-opacity:1;stroke:none;stroke-width:1.1700753px;stroke-linecap:butt;stroke-linejoin:miter;stroke-opacity:1" />
  <path
     id="path1352-6-1"
     d="m 465.0355,320.89978 c -0.60437,-0.67712 -6.81349,-5.97087 -5.26656,-4.41856 6.29156,6.31244 3.2945,29.81142 -11.49405,47.04341 -12.05974,14.05242 -52.83609,27.23054 -70.15951,-1.16232 9.8998,5.46256 20.18755,6.64888 29.02829,5.205 2.21075,-0.36 -3.24506,-2.11756 -1.24394,-2.78187 4.18656,0.0437 7.82531,-0.31313 11.08725,-1.28481 0.95793,-0.28688 -3.8935,-0.34313 -2.99632,-0.74019 6.45363,-0.31313 10.51043,-3.08269 14.42056,-6.99768 16.55167,-24.08442 9.75418,-55.5874 -24.31567,-61.37139 -15.05974,-1.64613 -33.95585,3.95524 -52.34034,14.03742 -1.53681,0.84256 4.69556,0.58 3.1685,1.48413 -10.82468,2.00956 -19.99361,8.80243 -27.56061,14.81917 -1.29056,1.03069 6.80837,-0.465 5.5485,0.60125 -36.2581,18.68611 -58.21002,73.22732 -42.66534,97.85518 -10.57375,0.12 -25.66467,-1.14469 -33.56142,-2.172 -13.85017,-1.80168 -23.9451,-8.71668 -35.04734,-17.77886 -2.26044,-1.92681 8.75443,4.75887 6.9183,2.53119 -4.35974,-8.69575 -10.50161,-11.32975 -15.44411,-19.74299 -0.6225,-1.34275 7.18706,5.74581 6.66331,4.34568 -1.62438,-12.31024 -8.54843,-26.5341 -9.15243,-38.38922 0.025,-2.37387 4.92212,6.333 5.11418,3.906 4.70406,-21.47698 15.08699,-33.57385 24.86417,-51.63046 1.50494,-1.53081 0.26062,6.86699 1.88731,5.37431 48.02978,-44.07297 147.33558,-70.81451 188.06292,-40.2891 5.21156,5.32325 11.42662,8.42781 16.86793,13.8098 0.80912,0.88375 -5.61944,-3.22112 -4.81937,-2.27181 4.59268,9.23525 12.83386,13.76656 18.60261,22.13911 0.63475,1.09413 -6.54787,-4.44387 -5.92106,-3.29868 3.41387,6.2378 6.67593,13.27667 9.75493,21.17354 z"
     style="fill:url(#linearGradient1174);fill-opacity:1;stroke:none;stroke-width:1.24343276px;stroke-linecap:butt;stroke-linejoin:miter;stroke-opacity:1" />
  <path
     id="path1352-7-2"
     d="m 448.27489,363.52463 c -12.05974,14.05242 -52.83609,27.23054 -70.15951,-1.16232 9.8998,5.46256 20.18755,6.64931 29.02829,5.20544 2.21075,-0.36 -3.24506,-2.11756 -1.24394,-2.78231 4.18656,0.0437 7.82531,-0.31313 11.08725,-1.28481 0.95793,-0.28688 -3.8935,-0.34313 -2.99632,-0.74019 6.45363,-0.31313 10.51043,-3.08269 14.42056,-6.99768 2.70824,-3.84987 4.28162,-7.46056 4.28162,-7.46056 1.00412,0.42938 -1.81513,9.37199 0.0631,10.71124 0.39187,0.27875 3.10168,-3.65781 3.10168,-3.65781 0.776,0.27875 0.60188,4.20044 1.93719,2.40469 3.03106,-4.07569 6.44981,-10.12368 6.44981,-10.12368 0.57562,0.19312 -2.0385,8.47924 -1.45869,8.94643 0.70288,0.56625 1.807,-1.80262 1.807,-1.80262 0.46062,0.14562 0.2875,2.17843 0.23937,2.79262 -0.0831,1.05812 1.88882,-0.89919 2.494,-1.23731 0.70494,-0.39438 -0.58562,4.11256 -0.33187,4.52487 0.3175,0.51625 6.14524,-5.952 7.08074,-5.30356 0,0 -2.66156,4.34312 -5.79981,7.96756 z"
     style="fill:#501616;fill-opacity:1;stroke:none;stroke-width:1.24343276px;stroke-linecap:butt;stroke-linejoin:miter;stroke-opacity:1" />
</svg>
