<?xml version="1.0" encoding="UTF-8" standalone="no"?>
<svg
   xmlns:dc="http://purl.org/dc/elements/1.1/"
   xmlns:cc="http://creativecommons.org/ns#"
   xmlns:rdf="http://www.w3.org/1999/02/22-rdf-syntax-ns#"
   xmlns:svg="http://www.w3.org/2000/svg"
   xmlns="http://www.w3.org/2000/svg"
   xmlns:xlink="http://www.w3.org/1999/xlink"
   id="svg2602"
   version="1.1"
   viewBox="0 0 432.00001 432.00001"
   height="432"
   width="432">
  <defs
     id="defs2596">
    <linearGradient
       id="linearGradient3166">
      <stop
         id="stop3162"
         offset="0"
         style="stop-color:#411a47;stop-opacity:1;" />
      <stop
         id="stop3164"
         offset="1"
         style="stop-color:#5f1a47;stop-opacity:1" />
    </linearGradient>
    <linearGradient
       gradientUnits="userSpaceOnUse"
       y2="1065.7559"
       x2="432"
       y1="1497.7559"
       x1="432"
       id="linearGradient3168"
       xlink:href="#linearGradient3166" />
  </defs>
  <metadata
     id="metadata2599">
    <rdf:RDF>
      <cc:Work
         rdf:about="">
        <dc:format>image/svg+xml</dc:format>
        <dc:type
           rdf:resource="http://purl.org/dc/dcmitype/StillImage" />
        <dc:title></dc:title>
      </cc:Work>
    </rdf:RDF>
  </metadata>
  <g
     transform="translate(0,-1065.7559)"
     id="layer1">
    <rect
       y="1065.7559"
       x="0"
       height="432"
       width="432"
       id="rect3300"
       style="opacity:1;fill:url(#linearGradient3168);fill-opacity:1;stroke:none;stroke-width:8.04801178;stroke-miterlimit:4;stroke-dasharray:none;stroke-opacity:1" />
  </g>
</svg>
