<?xml version="1.0" encoding="UTF-8" standalone="no"?>
<svg
   xmlns:dc="http://purl.org/dc/elements/1.1/"
   xmlns:cc="http://creativecommons.org/ns#"
   xmlns:rdf="http://www.w3.org/1999/02/22-rdf-syntax-ns#"
   xmlns:svg="http://www.w3.org/2000/svg"
   xmlns="http://www.w3.org/2000/svg"
   xmlns:xlink="http://www.w3.org/1999/xlink"
   width="64"
   height="64"
   viewBox="0 0 64 64.000002"
   version="1.1"
   id="svg4319">
  <defs
     id="defs4313">
    <linearGradient
       xlink:href="#linearGradient2936"
       id="linearGradient1360-7-6-5"
       x1="136.81311"
       y1="173.91913"
       x2="167.58571"
       y2="126.60291"
       gradientUnits="userSpaceOnUse"
       gradientTransform="matrix(0.50609016,0.43076073,-0.44088551,0.52131545,19.323409,959.64707)" />
    <linearGradient
       id="linearGradient2936">
      <stop
         id="stop2932"
         offset="0"
         style="stop-color:#dfb14e;stop-opacity:1" />
      <stop
         id="stop2934"
         offset="1"
         style="stop-color:#b54047;stop-opacity:1" />
    </linearGradient>
    <linearGradient
       xlink:href="#linearGradient860"
       id="linearGradient862-2-9-8"
       x1="112.46608"
       y1="104.08393"
       x2="133.64702"
       y2="104.08393"
       gradientUnits="userSpaceOnUse"
       gradientTransform="matrix(0.5939911,0,0,0.61069184,-52.842166,1012.9658)" />
    <linearGradient
       id="linearGradient860">
      <stop
         style="stop-color:#dfb24f;stop-opacity:1"
         offset="0"
         id="stop856" />
      <stop
         style="stop-color:#d58b2f;stop-opacity:1"
         offset="1"
         id="stop858" />
    </linearGradient>
    <radialGradient
       xlink:href="#linearGradient1019"
       id="radialGradient3304-9-4-7"
       gradientUnits="userSpaceOnUse"
       gradientTransform="matrix(0.22977456,-0.00565675,0.0149448,0.75729926,-94.653878,784.00944)"
       cx="495.03906"
       cy="390.91138"
       fx="495.03906"
       fy="390.91138"
       r="10.743572" />
    <linearGradient
       id="linearGradient1019">
      <stop
         id="stop1015"
         offset="0"
         style="stop-color:#be5133;stop-opacity:1" />
      <stop
         id="stop1017"
         offset="1"
         style="stop-color:#81176b;stop-opacity:0" />
    </linearGradient>
    <linearGradient
       xlink:href="#linearGradient860"
       id="linearGradient878-6-5-2"
       x1="109.17788"
       y1="119.1124"
       x2="116.98858"
       y2="119.1124"
       gradientUnits="userSpaceOnUse"
       gradientTransform="matrix(0.5939911,0,0,0.61069184,-52.842166,1012.9658)" />
    <linearGradient
       xlink:href="#linearGradient912"
       id="linearGradient914-1-4-2"
       x1="124.89785"
       y1="118.32003"
       x2="144.10342"
       y2="118.32003"
       gradientUnits="userSpaceOnUse"
       gradientTransform="matrix(0.5939911,0,0,0.61069184,-51.564178,1012.9088)" />
    <linearGradient
       id="linearGradient912">
      <stop
         style="stop-color:#d99b3c;stop-opacity:1"
         offset="0"
         id="stop908" />
      <stop
         style="stop-color:#c96e35;stop-opacity:1"
         offset="1"
         id="stop910" />
    </linearGradient>
    <linearGradient
       xlink:href="#linearGradient2453"
       id="linearGradient1345-3-4-0"
       gradientUnits="userSpaceOnUse"
       x1="130.76288"
       y1="128.29868"
       x2="176.97937"
       y2="115.77173"
       gradientTransform="matrix(0.5939911,0,0,0.61069184,-52.842166,1012.9658)" />
    <linearGradient
       id="linearGradient2453">
      <stop
         id="stop2447"
         offset="0"
         style="stop-color:#d68e31;stop-opacity:1" />
      <stop
         id="stop2449"
         offset="0.82477462"
         style="stop-color:#be5133;stop-opacity:1" />
      <stop
         id="stop2451"
         offset="1"
         style="stop-color:#a3206d;stop-opacity:1" />
    </linearGradient>
    <radialGradient
       xlink:href="#linearGradient922"
       id="radialGradient3302-7-8-9"
       gradientUnits="userSpaceOnUse"
       gradientTransform="matrix(0.59423886,0,0,0.59423881,-52.868845,1014.927)"
       cx="146.95654"
       cy="147.13304"
       fx="146.95654"
       fy="147.13304"
       r="35" />
    <linearGradient
       id="linearGradient922">
      <stop
         style="stop-color:#9d1c6f;stop-opacity:1"
         offset="0"
         id="stop918" />
      <stop
         style="stop-color:#590f66;stop-opacity:1"
         offset="1"
         id="stop920" />
    </linearGradient>
    <linearGradient
       xlink:href="#linearGradient860"
       id="linearGradient854-5-8-0"
       x1="105.04161"
       y1="99.608566"
       x2="119.384"
       y2="99.608566"
       gradientUnits="userSpaceOnUse"
       gradientTransform="matrix(0.55468827,0,0,0.57028401,-48.158487,1017.2884)" />
    <linearGradient
       y2="128.17346"
       x2="165.79822"
       y1="173.91913"
       x1="136.81311"
       gradientTransform="matrix(0.50608966,0.43076031,-0.44088508,0.52131493,19.323418,-98.871819)"
       gradientUnits="userSpaceOnUse"
       id="linearGradient1174"
       xlink:href="#linearGradient1346" />
    <linearGradient
       id="linearGradient1346">
      <stop
         style="stop-color:#ffe198;stop-opacity:1"
         offset="0"
         id="stop1339" />
      <stop
         style="stop-color:#ffbb4d;stop-opacity:1"
         offset="1"
         id="stop1343" />
    </linearGradient>
    <linearGradient
       gradientTransform="matrix(0.59399051,0,0,0.61069127,-52.842073,-45.553254)"
       gradientUnits="userSpaceOnUse"
       y2="104.08393"
       x2="133.64702"
       y1="104.08393"
       x1="112.46608"
       id="linearGradient862-2"
       xlink:href="#linearGradient1160" />
    <linearGradient
       id="linearGradient1160">
      <stop
         style="stop-color:#fff9d1;stop-opacity:1"
         offset="0"
         id="stop1156" />
      <stop
         style="stop-color:#ffdc8e;stop-opacity:1"
         offset="1"
         id="stop1158" />
    </linearGradient>
    <radialGradient
       r="10.743572"
       fy="390.91138"
       fx="495.03906"
       cy="390.91138"
       cx="495.03906"
       gradientTransform="matrix(0.22977433,-0.00565674,0.01494477,0.75729855,-94.653743,-274.50931)"
       gradientUnits="userSpaceOnUse"
       id="radialGradient3304-7"
       xlink:href="#linearGradient1172" />
    <linearGradient
       id="linearGradient1172">
      <stop
         id="stop1168"
         offset="0"
         style="stop-color:#ff9912;stop-opacity:1" />
      <stop
         id="stop1170"
         offset="1"
         style="stop-color:#ff9810;stop-opacity:0" />
    </linearGradient>
    <linearGradient
       gradientTransform="matrix(0.59399051,0,0,0.61069127,-52.842073,-45.553254)"
       gradientUnits="userSpaceOnUse"
       y2="119.1124"
       x2="116.98858"
       y1="119.1124"
       x1="109.17788"
       id="linearGradient878-8"
       xlink:href="#linearGradient1166" />
    <linearGradient
       id="linearGradient1166">
      <stop
         style="stop-color:#ffd782;stop-opacity:1"
         offset="0"
         id="stop1162" />
      <stop
         style="stop-color:#ffd57d;stop-opacity:1"
         offset="1"
         id="stop1164" />
    </linearGradient>
    <linearGradient
       gradientTransform="matrix(0.59399051,0,0,0.61069127,-51.564083,-45.610383)"
       gradientUnits="userSpaceOnUse"
       y2="118.32003"
       x2="144.10342"
       y1="118.32003"
       x1="124.89785"
       id="linearGradient914-1"
       xlink:href="#linearGradient1154" />
    <linearGradient
       id="linearGradient1154">
      <stop
         style="stop-color:#ffe5a3;stop-opacity:1"
         offset="0"
         id="stop1150" />
      <stop
         style="stop-color:#ffd987;stop-opacity:1"
         offset="1"
         id="stop1152" />
    </linearGradient>
    <linearGradient
       gradientTransform="matrix(0.59399051,0,0,0.61069127,-52.842073,-45.553254)"
       y2="115.77173"
       x2="176.97937"
       y1="129.18776"
       x1="130.21443"
       gradientUnits="userSpaceOnUse"
       id="linearGradient1345-9"
       xlink:href="#linearGradient1148" />
    <linearGradient
       id="linearGradient1148">
      <stop
         id="stop1142"
         offset="0"
         style="stop-color:#ffe198;stop-opacity:1" />
      <stop
         id="stop1144"
         offset="0.73873258"
         style="stop-color:#ffd277;stop-opacity:1" />
      <stop
         id="stop1146"
         offset="1"
         style="stop-color:#ff8f00;stop-opacity:1" />
    </linearGradient>
    <radialGradient
       r="35"
       fy="147.13304"
       fx="146.95654"
       cy="147.13304"
       cx="146.95654"
       gradientTransform="matrix(0.59423827,0,0,0.59423822,-52.868753,-43.592018)"
       gradientUnits="userSpaceOnUse"
       id="radialGradient3302-0"
       xlink:href="#linearGradient1140" />
    <linearGradient
       id="linearGradient1140">
      <stop
         style="stop-color:#8baccb;stop-opacity:1"
         offset="0"
         id="stop1136" />
      <stop
         style="stop-color:#395477;stop-opacity:1"
         offset="1"
         id="stop1138" />
    </linearGradient>
    <linearGradient
       gradientTransform="matrix(0.55468772,0,0,0.57028344,-48.158403,-41.230771)"
       gradientUnits="userSpaceOnUse"
       y2="99.608566"
       x2="119.384"
       y1="99.608566"
       x1="105.04161"
       id="linearGradient854-0"
       xlink:href="#linearGradient1166" />
  </defs>
  <metadata
     id="metadata4316">
    <rdf:RDF>
      <cc:Work
         rdf:about="">
        <dc:format>image/svg+xml</dc:format>
        <dc:type
           rdf:resource="http://purl.org/dc/dcmitype/StillImage" />
        <dc:title></dc:title>
      </cc:Work>
    </rdf:RDF>
  </metadata>
  <path
     id="path832-5"
     d="m 10.827365,11.676385 c 2.491147,1.53338 4.67125,3.018821 7.115702,3.448023 l -2.779709,4.648791 c -0.331976,-0.293198 -0.555296,-0.476747 -0.860649,-0.763372 -0.01474,-0.01413 -0.119533,0.143312 -0.190798,0.09767 -0.07204,-0.04607 0.09614,-0.178081 0.08354,-0.189937 -0.01047,-0.0098 -0.415887,0.31949 -0.386514,0.147674 0.03832,-0.224091 0.227236,-0.206277 0.20489,-0.247434 -0.02238,-0.04116 -0.158959,0.03071 -0.16657,0.02334 -0.03496,-0.03317 0.130462,-0.154002 0.09584,-0.187173 -2.724729,-2.607766 -4.258798,-4.930835 -3.706082,-6.927491 0.0088,-0.03163 -0.368552,-0.572999 -0.188091,-0.564829 0.147639,0.0067 0.265216,0.37937 0.315368,0.368909 0.01898,-0.0037 -0.01029,-0.566592 0.06076,-0.561918 0.153585,0.01008 0.209502,0.653342 0.263201,0.65274 0.05951,-6.14e-4 -0.09585,-0.419459 0.04021,-0.442777 0.162177,-0.02777 0.07827,0.339663 0.0989,0.49775 z"
     style="fill:url(#linearGradient854-0);fill-opacity:1;stroke:none;stroke-width:0.14881px;stroke-linecap:butt;stroke-linejoin:miter;stroke-opacity:1" />
  <path
     id="path916-1"
     d="m 31.94275,17.404083 c -11.486576,0 -20.79828,9.311712 -20.798299,20.798302 1.9e-5,11.48659 9.311723,20.798326 20.798299,20.798326 11.486576,0 20.798278,-9.311736 20.798297,-20.798326 -1.9e-5,-11.48659 -9.311721,-20.798302 -20.798297,-20.798302 z"
     style="fill:url(#radialGradient3302-0);fill-opacity:1;stroke:none;stroke-width:0.31351492;stroke-miterlimit:4;stroke-dasharray:none;stroke-opacity:1" />
  <path
     id="path826-7-1"
     d="m 16.080533,25.196114 c -0.483165,0.649115 -1.312201,1.758577 -1.23098,1.795741 0.04627,0.0215 0.142674,-0.171693 0.183876,-0.142084 0.0095,0.0068 -0.374503,0.51729 -0.330953,0.559553 0.03544,0.0344 0.144688,-0.221389 0.195393,-0.188586 0.06739,0.04423 -1.084532,2.192877 -1.314759,2.916014 -0.143625,0.451193 -0.0056,1.46888 0.779181,1.440623 0.79148,-0.02887 1.678366,-0.728727 1.887616,-1.513846 0.123734,-0.464215 0.554177,-1.263708 0.943314,-1.84771 -0.01915,0.524293 -0.07789,1.265859 -0.04886,1.785668 1.42588,1.042627 2.578485,0.832295 3.774105,-0.04361 0.10824,-0.07937 0.21667,-0.164137 0.325854,-0.253945 0.141132,-0.116162 0.283398,-0.240739 0.427008,-0.372626 0.06021,-0.05529 0.02092,0.239878 0.08169,0.182013 0.518016,-0.968729 1.464026,-1.761157 2.099106,-2.44326 0.46897,-0.503223 3.038773,-0.86688 3.180458,-2.043115 3.47e-4,-0.0061 2.66e-4,-0.0098 6.75e-4,-0.01351 0.489259,-0.08016 0.990208,-0.169113 1.500376,-0.264266 -1.818942,1.356466 -3.151042,2.595358 -3.129818,2.614462 0.02705,0.02457 0.104313,-0.0715 0.1298,-0.05283 0.0041,-6.1e-5 -0.397164,0.305607 -0.352927,0.342342 0.0379,0.03194 0.09968,-0.06837 0.140112,-0.0387 0.04891,0.03624 -1.031645,1.40868 -1.402758,2.041517 0,0 -0.900209,2.236368 0.66647,2.314506 2.119008,0.105718 1.820128,-1.474286 2.704292,-2.243679 0.935161,-0.813929 2.207042,-1.965161 3.420238,-3.07579 0.103708,-0.09497 -0.05974,0.550769 0.04286,0.45666 0.370946,-0.710114 0.714593,-1.150926 1.269183,-1.66238 0.128982,-0.118926 -0.09861,0.609863 0.02423,0.496281 0.379264,-0.93439 1.050864,-1.547078 1.76799,-2.179117 6.525078,-1.077211 13.363375,-1.165484 16.866254,6.161409 1.278884,2.67503 1.976602,5.603391 2.044147,8.582001 0.836084,-8.510744 -1.185032,-17.148338 -6.184419,-22.49717 -0.05914,-0.06333 0.39219,0.15523 0.332211,0.09288 -0.184759,-0.192087 -0.884529,-0.66091 -1.077209,-0.844029 -0.117914,-0.111984 0.529886,0.289268 0.652828,0.183058 0.161229,-0.13932 -1.352473,-0.814666 -1.527683,-0.95976 -0.06074,-0.05037 0.321104,0.15738 0.547631,0.221327 0.148952,0.04177 0.185231,-0.04362 0.144523,-0.0758 -1.56522,-1.235752 -3.669,-2.317393 -5.96133,-3.036537 -0.183482,-0.05756 0.705216,-0.03839 0.519494,-0.09119 -1.120947,-0.110473 -2.336692,-0.417542 -3.350144,-0.586452 -0.276739,-0.04564 1.226178,-0.382221 0.948687,-0.415583 -1.21175,0.148264 -2.527949,0.18431 -3.6756,0.171257 -10.24407,1.029002 -22.626471,4.109436 -18.012132,14.52852 z"
     style="opacity:0.2;fill:#011842;fill-opacity:1;stroke:none;stroke-width:0.15302892px;stroke-linecap:butt;stroke-linejoin:miter;stroke-opacity:1" />
  <path
     id="path826-0"
     d="m 33.908401,9.133568 c -3.401118,-0.05277 -6.579698,1.010998 -9.515854,1.989125 l 0.476085,12.975815 c 8.330383,-0.892373 20.877352,-5.656343 25.906535,5.429671 1.275565,2.811648 1.940472,5.875213 1.948537,8.977663 1.048355,-8.843195 -0.875277,-17.878171 -5.968456,-23.551469 -0.06025,-0.06714 0.405055,0.169666 0.343911,0.103569 -0.188341,-0.203881 -0.906907,-0.706674 -1.103682,-0.90128 -0.120423,-0.119048 0.545669,0.312365 0.675888,0.204373 0.17077,-0.141654 -1.391334,-0.87661 -1.570717,-1.031343 -0.06219,-0.05363 0.331076,0.170753 0.565583,0.241931 0.154203,0.04681 0.19384,-0.04153 0.152127,-0.07585 -1.603758,-1.319259 -3.771344,-2.489553 -6.14291,-3.286189 -0.189824,-0.06376 0.734883,-0.025 0.54263,-0.08385 -1.164736,-0.138442 -2.423976,-0.483603 -3.475574,-0.680641 -0.287167,-0.05332 1.284595,-0.372282 0.996389,-0.412812 -1.264681,0.12903 -2.63592,0.138877 -3.830492,0.101301 z"
     style="fill:url(#linearGradient1345-9);fill-opacity:1;stroke:none;stroke-width:0.15935405px;stroke-linecap:butt;stroke-linejoin:miter;stroke-opacity:1" />
  <path
     id="path834-8"
     d="m 32.9094,20.755504 c -3.862348,1.51016 -8.434903,5.542024 -8.395976,5.578574 0.02765,0.02641 0.110041,-0.07249 0.136187,-0.05283 0.0042,0 -0.41997,0.309785 -0.37468,0.348915 0.03879,0.03379 0.105175,-0.06886 0.146643,-0.03686 0.05016,0.0387 -1.103458,1.444922 -1.503058,2.096004 0,0 -0.983992,2.309591 0.645483,2.423664 2.203937,0.15437 1.92595,-1.496768 2.862554,-2.279368 0.99063,-0.82775 2.338871,-1.999869 3.62517,-3.130892 0.109959,-0.09663 -0.0738,0.57233 0.035,0.476502 0.401044,-0.731492 0.768178,-1.183545 1.356264,-1.704459 0.136773,-0.121137 -0.115631,0.632837 0.01464,0.517229 0.538406,-1.253635 1.578708,-1.930885 2.574352,-2.823503"
     style="fill:url(#linearGradient914-1);fill-opacity:1;stroke:none;stroke-width:0.15935405px;stroke-linecap:butt;stroke-linejoin:miter;stroke-opacity:1" />
  <path
     id="path836-5"
     d="m 15.04221,23.637425 c -0.449756,0.583203 -1.603229,2.044404 -1.509256,2.089739 0.04772,0.02334 0.152044,-0.176055 0.194322,-0.144357 0.0098,0.0074 -0.400634,0.530804 -0.356178,0.575708 0.03618,0.03686 0.155243,-0.22747 0.207347,-0.19221 0.06924,0.0473 -1.175146,2.260326 -1.429957,3.008403 -0.158963,0.466734 -0.03647,1.529264 0.781157,1.51618 0.82463,-0.01351 1.762803,-0.723629 1.997067,-1.536574 0.237994,-0.825907 1.442054,-2.683692 1.706623,-2.631907"
     style="fill:url(#linearGradient878-8);fill-opacity:1;stroke:none;stroke-width:0.15935405px;stroke-linecap:butt;stroke-linejoin:miter;stroke-opacity:1" />
  <path
     id="path828-5-0"
     d="m 26.286448,10.505864 c -0.640933,0.202714 -1.274365,0.411184 -1.893901,0.61756 l 0.476085,12.975084 c 0.785225,-0.108483 1.582803,-0.226671 2.38564,-0.339577 0.165197,-0.167577 0.277635,-0.357146 0.308488,-0.576139 0.451007,-3.431215 0.14471,-6.304967 -0.730856,-9.579656 0.0905,-0.18608 -0.103564,-1.549278 -0.545456,-3.097272 z"
     style="fill:url(#radialGradient3304-7);fill-opacity:1;stroke:none;stroke-width:0.15934958px;stroke-linecap:butt;stroke-linejoin:miter;stroke-opacity:1" />
  <path
     id="path828-6"
     d="m 19.352023,13.285261 c -2.483112,1.728207 -8.293177,5.152543 -3.436598,12.490186 -0.04565,0.22962 -0.07238,0.568214 -0.08357,1.001715 -0.002,0.0758 0.07523,-0.15308 0.07422,-0.0715 -8.6e-4,0.06935 -0.0028,0.1462 -0.0055,0.229006 -7.37e-4,0.02334 0.05917,-0.11524 0.05835,-0.09128 -0.01858,0.53793 -0.497713,1.602549 -0.0997,2.065045 1.199802,1.394244 2.666957,0.9202 3.930055,0.03317 0.11435,-0.08035 0.229182,-0.166349 0.344733,-0.25757 0.149364,-0.117881 0.299928,-0.244609 0.452199,-0.378953 0.06384,-0.05651 0.0167,0.250137 0.08116,0.191166 0.559566,-0.997662 1.561279,-1.803052 2.236732,-2.499897 0.498774,-0.514035 3.181615,-0.83893 3.353712,-2.060622 0.06125,-0.466058 -0.09622,-2.045387 0.0025,-2.053373 0.08669,-0.0074 0.02986,0.303335 0.134094,0.309846 0.118033,0.0074 0.04103,-0.382086 0.05834,-0.379874 0.02447,0 0.157744,0.338778 0.18504,0.338287 0.134879,0 -0.308447,-1.596037 -0.226373,-1.598494 0.10635,0 0.08734,0.307081 0.221684,0.308617 0.07134,6.14e-4 -0.646815,-2.221994 -0.464344,-2.217694 0.148123,0.0061 0.192274,0.421277 0.353779,0.457888 0.133306,0.0301 -0.625257,-3.296872 -0.940375,-4.533244 -0.0086,-0.03379 0.07768,-0.04546 0.09794,-0.07623 0.0129,-0.01966 -0.04881,-0.0629 -0.02418,-0.07285 0.02816,-0.01167 0.112735,0.02457 0.121418,0.0068 0.03033,-0.06081 -0.211356,-0.132317 -0.165174,-0.204496 0.02212,-0.0344 -0.0034,-0.164997 0.02282,-0.207014 0.152134,-0.243804 0.395968,-0.487374 0.302566,-0.505441 -0.104625,-0.02027 -0.226722,0.270225 -0.335054,0.26735 -0.05575,-0.0012 0.179019,-0.608659 0.129426,-0.618039 -0.118757,-0.02242 -0.262081,0.293444 -0.363777,0.343809 -0.03211,0.01591 0.162705,-0.289132 0.03118,-0.292479 -0.02396,-6.09e-4 -0.139572,0.178695 -0.175452,0.09264 -0.40028,-0.960067 -1.659325,-6.252403 -3.383544,-6.89094 -0.03435,-0.01272 0.02354,-0.468412 -0.07997,-0.47504 -0.03119,-0.0018 -0.143288,0.486287 -0.246707,0.461046 -0.100909,-0.02463 -0.192863,-0.563552 -0.247817,-0.507246 -0.05984,0.06131 0.0069,0.451985 -0.02988,0.429981 -0.201041,-0.120246 -0.29051,-0.203058 -0.352882,-0.199968 -0.156074,0.0077 0.271785,0.286552 0.137937,0.371268 -0.06722,0.04251 -0.303719,-0.03753 -0.36566,0.02193 -0.0365,0.03508 0.09987,0.204348 0.06515,0.244787 -1.278845,1.489286 -1.368535,6.528118 -1.368535,6.528118 z"
     style="fill:url(#linearGradient862-2);fill-opacity:1;stroke:none;stroke-width:0.15935405px;stroke-linecap:butt;stroke-linejoin:miter;stroke-opacity:1" />
  <path
     id="path838-4"
     d="m 15.417282,25.003535 c 0.200085,-0.0516 0.379096,0.07027 0.561284,0.165919 l -0.371849,0.100988 z"
     style="fill:#501616;stroke:none;stroke-width:0.15935405px;stroke-linecap:butt;stroke-linejoin:miter;stroke-opacity:1" />
  <path
     id="path840-6"
     d="m 17.950087,24.231747 c 0.544125,-0.767305 1.021723,-1.62583 1.711922,-2.192878 l 0.21048,0.100989 c -0.714736,0.602307 -1.308686,1.359783 -1.922402,2.091889 z"
     style="fill:#501616;stroke:none;stroke-width:0.15935405px;stroke-linecap:butt;stroke-linejoin:miter;stroke-opacity:1" />
  <path
     id="path844-2"
     d="m 16.446366,28.457049 c -0.0632,-0.06352 -0.04602,-0.222985 0.01013,-0.292522 0.208303,-0.257939 0.326761,-0.463848 0.819057,-0.493763 0.05565,-0.0061 0.100088,0 0.154788,0.0344 0.03649,0.02457 0.03801,0.0516 0.0488,0.09663 0.02731,0.113888 0.06381,0.228084 0.0056,0.325817 -0.180086,0.302413 -0.02558,0.384666 -0.0052,0.487681 -0.02679,0.08201 -0.0674,0.161189 -0.224511,0.216413 -0.374295,-0.01474 -0.55236,-0.116775 -0.808728,-0.374407 z"
     style="fill:#550000;stroke:none;stroke-width:0.15935405px;stroke-linecap:butt;stroke-linejoin:miter;stroke-opacity:1" />
  <path
     id="path846-5"
     d="m 17.641378,29.468655 -0.01141,-0.02334 c 0.631769,-0.290188 1.228176,-0.701514 1.821306,-1.124081 l 0.04235,0.06554 c -0.597246,0.389703 -1.191409,0.783829 -1.852253,1.082003 z"
     style="fill:#501616;stroke:none;stroke-width:0.15935405px;stroke-linecap:butt;stroke-linejoin:miter;stroke-opacity:1" />
  <path
     id="path1352-1-8"
     d="m 45.530129,42.352499 c -0.08324,-0.08981 -0.933963,-0.787883 -0.72142,-0.582527 0.864453,0.835306 0.519904,4.011839 -1.430672,6.373153 -1.590652,1.925601 -7.056046,3.806237 -9.464199,0.0215 1.348884,0.711527 2.739225,0.845441 3.927771,0.628291 0.297199,-0.05406 -0.442986,-0.277411 -0.174807,-0.37195 0.564698,-0.0061 1.054444,-0.06253 1.491915,-0.20124 0.128438,-0.04116 -0.525927,-0.03624 -0.405946,-0.09226 0.869476,-0.05897 1.409547,-0.442347 1.926911,-0.980216 2.170945,-3.289869 1.174368,-7.520884 -3.434742,-8.214474 -2.035037,-0.183795 -4.569032,0.619507 -7.022665,2.025853 -0.205105,0.117451 0.634682,0.06628 0.431043,0.192025 -1.45465,0.298482 -2.673873,1.237786 -3.679049,2.0683 -0.171419,0.142269 0.916924,-0.08029 0.749757,0.06708 -4.842122,2.61182 -7.664059,10.022563 -5.505328,13.304323 -1.425607,0.043 -3.463873,-0.08926 -4.531381,-0.207751 -1.872312,-0.207813 -3.251192,-1.114745 -4.771358,-2.30867 -0.309715,-0.254069 1.192634,0.619507 0.939378,0.32379 -0.609988,-1.161553 -1.444924,-1.501192 -2.132774,-2.623185 -0.08738,-0.179494 0.983777,0.756616 0.909593,0.569136 -0.250286,-1.655991 -1.220103,-3.556591 -1.331623,-5.153734 -0.0029,-0.320166 0.679829,0.84151 0.69957,0.513727 0.579873,-2.908151 1.949364,-4.565801 3.222041,-7.025586 0.199063,-0.210331 0.05255,0.92536 0.268152,0.720005 6.365172,-6.065335 19.689071,-9.923417 25.258731,-5.910289 0.716301,0.704647 1.562303,1.107619 2.309736,1.819576 0.111351,0.117021 -0.765972,-0.420172 -0.655669,-0.29412 0.642758,1.23367 1.76561,1.823875 2.564781,2.938251 0.08838,0.146016 -0.894275,-0.582588 -0.806836,-0.429754 0.476192,0.832541 0.933957,1.773504 1.369193,2.830567 z"
     style="opacity:0.3;fill:#001842;fill-opacity:1;stroke:none;stroke-width:0.16771092px;stroke-linecap:butt;stroke-linejoin:miter;stroke-opacity:1" />
  <path
     id="path1352-6"
     d="m 47.271836,41.928949 c -0.08665,-0.09706 -0.976595,-0.855823 -0.754871,-0.633328 0.901789,0.904781 0.472214,4.272971 -1.647483,6.742891 -1.728564,2.014182 -7.573172,3.903049 -10.056201,-0.166594 1.418977,0.782968 2.893547,0.953003 4.160726,0.74605 0.316878,-0.0516 -0.465127,-0.303519 -0.178298,-0.398733 0.600078,0.0061 1.121627,-0.04484 1.589174,-0.184163 0.137296,-0.04116 -0.558074,-0.04914 -0.42947,-0.106087 0.925013,-0.04484 1.506492,-0.441856 2.066943,-1.003006 2.372403,-3.452101 1.398097,-7.967531 -3.485249,-8.796571 -2.158565,-0.235947 -4.867007,0.566924 -7.502122,2.012031 -0.220271,0.120769 0.673031,0.08318 0.454149,0.212727 -1.551538,0.288039 -2.865747,1.261682 -3.950351,2.124078 -0.184979,0.147735 0.975868,-0.06665 0.795281,0.08618 -5.196994,2.678347 -8.343438,10.495931 -6.115366,14.025924 -1.515571,0.0172 -3.678604,-0.164076 -4.810473,-0.31132 -1.985192,-0.258246 -3.432135,-1.249396 -5.023456,-2.548303 -0.323994,-0.276183 1.254802,0.682103 0.991624,0.362797 -0.624901,-1.246385 -1.505234,-1.623925 -2.213654,-2.82983 -0.08926,-0.192455 1.030145,0.823573 0.955073,0.622886 -0.232832,-1.764474 -1.225282,-3.803227 -1.311851,-5.502464 0.0033,-0.340253 0.705505,0.90773 0.733034,0.55986 0.674245,-3.07837 2.162466,-4.812253 3.563864,-7.400362 0.215707,-0.219422 0.03733,0.98427 0.270516,0.770315 6.884272,-6.31713 21.118118,-10.150089 26.955704,-5.774777 0.74699,0.763004 1.637818,1.207993 2.417741,1.979412 0.115974,0.126666 -0.805452,-0.461697 -0.690777,-0.325632 0.65828,1.323724 1.839519,1.973208 2.666373,3.173277 0.09098,0.156827 -0.938528,-0.636953 -0.84868,-0.472816 0.48932,0.894093 0.956886,1.902996 1.398203,3.034879 z"
     style="fill:url(#linearGradient1174);fill-opacity:1;stroke:none;stroke-width:0.17822549px;stroke-linecap:butt;stroke-linejoin:miter;stroke-opacity:1" />
  <path
     id="path1352-7-2"
     d="m 44.869482,48.038512 c -1.728564,2.014182 -7.573172,3.903049 -10.056201,-0.166594 1.418977,0.782968 2.893547,0.953064 4.160726,0.746111 0.316878,-0.0516 -0.465127,-0.303518 -0.178298,-0.398794 0.600078,0.0061 1.121627,-0.04484 1.589174,-0.184163 0.137296,-0.04116 -0.558074,-0.04914 -0.42947,-0.106087 0.925013,-0.04484 1.506492,-0.441856 2.066943,-1.003006 0.388185,-0.551813 0.613698,-1.069348 0.613698,-1.069348 0.143928,0.06155 -0.260167,1.34332 0.009,1.535284 0.05624,0.03993 0.444577,-0.524293 0.444577,-0.524293 0.111222,0.03993 0.08629,0.602062 0.277662,0.344676 0.434457,-0.584186 0.924471,-1.451066 0.924471,-1.451066 0.08248,0.02764 -0.29218,1.215364 -0.209077,1.282322 0.100747,0.08115 0.259006,-0.258369 0.259006,-0.258369 0.06606,0.02089 0.04121,0.312241 0.0343,0.400269 -0.01192,0.151667 0.270728,-0.128878 0.357471,-0.177345 0.101037,-0.05651 -0.08398,0.589469 -0.04759,0.648563 0.04554,0.07396 0.880829,-0.85312 1.014907,-0.760178 0,0 -0.381492,0.622517 -0.831303,1.142018 z"
     style="fill:#501616;fill-opacity:1;stroke:none;stroke-width:0.17822549px;stroke-linecap:butt;stroke-linejoin:miter;stroke-opacity:1" />
</svg>
