<?xml version="1.0" encoding="UTF-8" standalone="no"?>
<svg
   xmlns:dc="http://purl.org/dc/elements/1.1/"
   xmlns:cc="http://creativecommons.org/ns#"
   xmlns:rdf="http://www.w3.org/1999/02/22-rdf-syntax-ns#"
   xmlns:svg="http://www.w3.org/2000/svg"
   xmlns="http://www.w3.org/2000/svg"
   xmlns:xlink="http://www.w3.org/1999/xlink"
   width="32"
   height="32"
   viewBox="0 0 32 32.000001"
   version="1.1"
   id="svg4319">
  <defs
     id="defs4313">
    <linearGradient
       xlink:href="#linearGradient2936"
       id="linearGradient1360-7-6-5-6"
       x1="136.81311"
       y1="173.91913"
       x2="167.58571"
       y2="126.60291"
       gradientUnits="userSpaceOnUse"
       gradientTransform="matrix(0.23539085,0.20035389,-0.2050631,0.24247238,9.3364647,1046.5908)" />
    <linearGradient
       id="linearGradient2936">
      <stop
         id="stop2932"
         offset="0"
         style="stop-color:#dfb14e;stop-opacity:1" />
      <stop
         id="stop2934"
         offset="1"
         style="stop-color:#b54047;stop-opacity:1" />
    </linearGradient>
    <linearGradient
       xlink:href="#linearGradient860"
       id="linearGradient862-2-9-8-4"
       x1="112.46608"
       y1="104.08393"
       x2="133.64702"
       y2="104.08393"
       gradientUnits="userSpaceOnUse"
       gradientTransform="matrix(0.27627502,0,0,0.28404281,-24.228929,1071.3903)" />
    <linearGradient
       id="linearGradient860">
      <stop
         style="stop-color:#dfb24f;stop-opacity:1"
         offset="0"
         id="stop856" />
      <stop
         style="stop-color:#d58b2f;stop-opacity:1"
         offset="1"
         id="stop858" />
    </linearGradient>
    <radialGradient
       xlink:href="#linearGradient1019"
       id="radialGradient3304-9-4-7-2"
       gradientUnits="userSpaceOnUse"
       gradientTransform="matrix(0.10687192,-0.00263104,0.00695107,0.35223233,-43.676245,964.8987)"
       cx="495.03906"
       cy="390.91138"
       fx="495.03906"
       fy="390.91138"
       r="10.743572" />
    <linearGradient
       id="linearGradient1019">
      <stop
         id="stop1015"
         offset="0"
         style="stop-color:#be5133;stop-opacity:1" />
      <stop
         id="stop1017"
         offset="1"
         style="stop-color:#81176b;stop-opacity:0" />
    </linearGradient>
    <linearGradient
       xlink:href="#linearGradient860"
       id="linearGradient878-6-5-2-9"
       x1="109.17788"
       y1="119.1124"
       x2="116.98858"
       y2="119.1124"
       gradientUnits="userSpaceOnUse"
       gradientTransform="matrix(0.27627502,0,0,0.28404281,-24.228929,1071.3903)" />
    <linearGradient
       xlink:href="#linearGradient912"
       id="linearGradient914-1-4-2-0"
       x1="124.89785"
       y1="118.32003"
       x2="144.10342"
       y2="118.32003"
       gradientUnits="userSpaceOnUse"
       gradientTransform="matrix(0.27627502,0,0,0.28404281,-23.634519,1071.3637)" />
    <linearGradient
       id="linearGradient912">
      <stop
         style="stop-color:#d99b3c;stop-opacity:1"
         offset="0"
         id="stop908" />
      <stop
         style="stop-color:#c96e35;stop-opacity:1"
         offset="1"
         id="stop910" />
    </linearGradient>
    <linearGradient
       xlink:href="#linearGradient2453"
       id="linearGradient1345-3-4-0-5"
       gradientUnits="userSpaceOnUse"
       x1="130.76288"
       y1="128.29868"
       x2="176.97937"
       y2="115.77173"
       gradientTransform="matrix(0.27627502,0,0,0.28404281,-24.228929,1071.3903)" />
    <linearGradient
       id="linearGradient2453">
      <stop
         id="stop2447"
         offset="0"
         style="stop-color:#d68e31;stop-opacity:1" />
      <stop
         id="stop2449"
         offset="0.82477462"
         style="stop-color:#be5133;stop-opacity:1" />
      <stop
         id="stop2451"
         offset="1"
         style="stop-color:#a3206d;stop-opacity:1" />
    </linearGradient>
    <radialGradient
       xlink:href="#linearGradient922"
       id="radialGradient3302-7-8-9-3"
       gradientUnits="userSpaceOnUse"
       gradientTransform="matrix(0.27639026,0,0,0.27639024,-24.241337,1072.3024)"
       cx="146.95654"
       cy="147.13304"
       fx="146.95654"
       fy="147.13304"
       r="35" />
    <linearGradient
       id="linearGradient922">
      <stop
         style="stop-color:#9d1c6f;stop-opacity:1"
         offset="0"
         id="stop918" />
      <stop
         style="stop-color:#590f66;stop-opacity:1"
         offset="1"
         id="stop920" />
    </linearGradient>
    <linearGradient
       xlink:href="#linearGradient860"
       id="linearGradient854-5-8-0-6"
       x1="105.04161"
       y1="99.608566"
       x2="119.384"
       y2="99.608566"
       gradientUnits="userSpaceOnUse"
       gradientTransform="matrix(0.25799463,0,0,0.26524846,-22.050474,1073.4006)" />
    <linearGradient
       y2="128.17346"
       x2="165.79822"
       y1="173.91913"
       x1="136.81311"
       gradientTransform="matrix(0.23539055,0.20035364,-0.20506283,0.24247206,10.336474,-44.928816)"
       gradientUnits="userSpaceOnUse"
       id="linearGradient1174"
       xlink:href="#linearGradient1346" />
    <linearGradient
       id="linearGradient1346">
      <stop
         style="stop-color:#ffe198;stop-opacity:1"
         offset="0"
         id="stop1339" />
      <stop
         style="stop-color:#ffbb4d;stop-opacity:1"
         offset="1"
         id="stop1343" />
    </linearGradient>
    <linearGradient
       gradientTransform="matrix(0.27627466,0,0,0.28404246,-23.228871,-20.129481)"
       gradientUnits="userSpaceOnUse"
       y2="104.08393"
       x2="133.64702"
       y1="104.08393"
       x1="112.46608"
       id="linearGradient862-2"
       xlink:href="#linearGradient1160" />
    <linearGradient
       id="linearGradient1160">
      <stop
         style="stop-color:#fff9d1;stop-opacity:1"
         offset="0"
         id="stop1156" />
      <stop
         style="stop-color:#ffdc8e;stop-opacity:1"
         offset="1"
         id="stop1158" />
    </linearGradient>
    <radialGradient
       r="10.743572"
       fy="390.91138"
       fx="495.03906"
       cy="390.91138"
       cx="495.03906"
       gradientTransform="matrix(0.10687178,-0.00263104,0.00695106,0.35223189,-42.676158,-126.62068)"
       gradientUnits="userSpaceOnUse"
       id="radialGradient3304-7"
       xlink:href="#linearGradient1172" />
    <linearGradient
       id="linearGradient1172">
      <stop
         id="stop1168"
         offset="0"
         style="stop-color:#ff9912;stop-opacity:1" />
      <stop
         id="stop1170"
         offset="1"
         style="stop-color:#ff9810;stop-opacity:0" />
    </linearGradient>
    <linearGradient
       gradientTransform="matrix(0.27627466,0,0,0.28404246,-23.228871,-20.129481)"
       gradientUnits="userSpaceOnUse"
       y2="119.1124"
       x2="116.98858"
       y1="119.1124"
       x1="109.17788"
       id="linearGradient878-8"
       xlink:href="#linearGradient1166" />
    <linearGradient
       id="linearGradient1166">
      <stop
         style="stop-color:#ffd782;stop-opacity:1"
         offset="0"
         id="stop1162" />
      <stop
         style="stop-color:#ffd57d;stop-opacity:1"
         offset="1"
         id="stop1164" />
    </linearGradient>
    <linearGradient
       gradientTransform="matrix(0.27627466,0,0,0.28404246,-22.63446,-20.156053)"
       gradientUnits="userSpaceOnUse"
       y2="118.32003"
       x2="144.10342"
       y1="118.32003"
       x1="124.89785"
       id="linearGradient914-1"
       xlink:href="#linearGradient1154" />
    <linearGradient
       id="linearGradient1154">
      <stop
         style="stop-color:#ffe5a3;stop-opacity:1"
         offset="0"
         id="stop1150" />
      <stop
         style="stop-color:#ffd987;stop-opacity:1"
         offset="1"
         id="stop1152" />
    </linearGradient>
    <linearGradient
       gradientTransform="matrix(0.27627466,0,0,0.28404246,-23.228871,-20.129481)"
       y2="115.77173"
       x2="176.97937"
       y1="129.18776"
       x1="130.21443"
       gradientUnits="userSpaceOnUse"
       id="linearGradient1345-9"
       xlink:href="#linearGradient1148" />
    <linearGradient
       id="linearGradient1148">
      <stop
         id="stop1142"
         offset="0"
         style="stop-color:#ffe198;stop-opacity:1" />
      <stop
         id="stop1144"
         offset="0.73873258"
         style="stop-color:#ffd277;stop-opacity:1" />
      <stop
         id="stop1146"
         offset="1"
         style="stop-color:#ff8f00;stop-opacity:1" />
    </linearGradient>
    <radialGradient
       r="35"
       fy="147.13304"
       fx="146.95654"
       cy="147.13304"
       cx="146.95654"
       gradientTransform="matrix(0.2763899,0,0,0.27638988,-23.241283,-19.217278)"
       gradientUnits="userSpaceOnUse"
       id="radialGradient3302-0"
       xlink:href="#linearGradient1140" />
    <linearGradient
       id="linearGradient1140">
      <stop
         style="stop-color:#8baccb;stop-opacity:1"
         offset="0"
         id="stop1136" />
      <stop
         style="stop-color:#395477;stop-opacity:1"
         offset="1"
         id="stop1138" />
    </linearGradient>
    <linearGradient
       gradientTransform="matrix(0.2579943,0,0,0.26524812,-21.050423,-18.119024)"
       gradientUnits="userSpaceOnUse"
       y2="99.608566"
       x2="119.384"
       y1="99.608566"
       x1="105.04161"
       id="linearGradient854-0"
       xlink:href="#linearGradient1166" />
  </defs>
  <metadata
     id="metadata4316">
    <rdf:RDF>
      <cc:Work
         rdf:about="">
        <dc:format>image/svg+xml</dc:format>
        <dc:type
           rdf:resource="http://purl.org/dc/dcmitype/StillImage" />
        <dc:title></dc:title>
      </cc:Work>
    </rdf:RDF>
  </metadata>
  <path
     id="path832-5"
     d="m 6.3848223,6.488957 c 1.158673,0.7132 2.172674,1.404102 3.309629,1.603731 l -1.292888,2.162229 c -0.154407,-0.136372 -0.258277,-0.221743 -0.400302,-0.355057 -0.0069,-0.0066 -0.0556,0.06666 -0.08874,0.04543 -0.03351,-0.02143 0.04471,-0.08283 0.03886,-0.08834 -0.0049,-0.0046 -0.193436,0.1486 -0.179774,0.06869 0.01782,-0.104229 0.105691,-0.09594 0.0953,-0.115086 -0.01041,-0.01914 -0.07393,0.01429 -0.07747,0.01086 -0.01626,-0.01543 0.06068,-0.07163 0.04458,-0.08706 -1.267316,-1.212914 -1.980836,-2.293411 -1.723759,-3.222088 0.0041,-0.01471 -0.171419,-0.266512 -0.08748,-0.262712 0.06867,0.0031 0.123356,0.176452 0.146683,0.171586 0.0088,-0.0017 -0.0048,-0.263532 0.02826,-0.261357 0.07143,0.0047 0.09744,0.30388 0.122419,0.3036 0.02768,-2.86e-4 -0.04458,-0.195097 0.0187,-0.205943 0.07543,-0.01291 0.0364,0.157983 0.046,0.231511 z"
     style="fill:url(#linearGradient854-0);fill-opacity:1;stroke:none;stroke-width:0.06921396px;stroke-linecap:butt;stroke-linejoin:miter;stroke-opacity:1" />
  <path
     id="path916-1"
     d="m 16.205931,9.153002 c -5.342593,0 -9.6736177,4.331029 -9.6736267,9.673629 9e-6,5.3426 4.3310337,9.67364 9.6736267,9.67364 5.342594,0 9.673618,-4.33104 9.673627,-9.67364 -9e-6,-5.3426 -4.331033,-9.673629 -9.673627,-9.673629 z"
     style="fill:url(#radialGradient3302-0);fill-opacity:1;stroke:none;stroke-width:0.14582089;stroke-miterlimit:4;stroke-dasharray:none;stroke-opacity:1" />
  <path
     id="path826-7-1"
     d="m 8.8281563,12.777202 c -0.224728,0.301915 -0.610326,0.817943 -0.572549,0.835229 0.02152,0.01 0.06636,-0.07986 0.08552,-0.06609 0.0044,0.0031 -0.174187,0.2406 -0.153932,0.260257 0.01648,0.016 0.0673,-0.102971 0.09088,-0.08771 0.03134,0.02057 -0.504434,1.019943 -0.611516,1.356286 -0.0668,0.209857 -0.0026,0.6832 0.36241,0.670057 0.36813,-0.01343 0.780635,-0.338943 0.87796,-0.704114 0.05755,-0.215915 0.257757,-0.587772 0.438751,-0.8594 -0.0089,0.243857 -0.03623,0.588771 -0.02273,0.830542 0.663201,0.484943 1.1992957,0.387115 1.7553977,-0.02029 0.05034,-0.03692 0.100777,-0.07634 0.15156,-0.118115 0.06564,-0.05403 0.131813,-0.111971 0.198609,-0.173314 0.028,-0.02571 0.0097,0.111572 0.03799,0.08466 0.240937,-0.450571 0.680942,-0.819142 0.976328,-1.1364 0.218125,-0.234057 1.413383,-0.4032 1.479283,-0.950285 1.61e-4,-0.0029 1.24e-4,-0.0046 3.14e-4,-0.0063 0.227562,-0.03729 0.460562,-0.07866 0.697849,-0.122914 -0.846019,0.630914 -1.465601,1.207143 -1.455729,1.216028 0.01258,0.01143 0.04852,-0.03326 0.06037,-0.02457 0.0019,-2.9e-5 -0.184728,0.142143 -0.164152,0.159228 0.01763,0.01486 0.04636,-0.0318 0.06517,-0.018 0.02275,0.01686 -0.479835,0.6552 -0.652446,0.949543 0,0 -0.418702,1.040172 0.309986,1.076514 0.985586,0.04917 0.846572,-0.685714 1.257811,-1.043571 0.434958,-0.378571 1.026531,-0.914028 1.590808,-1.4306 0.04824,-0.04417 -0.02779,0.256172 0.01994,0.2124 0.172533,-0.330286 0.332369,-0.535314 0.590318,-0.7732 0.05999,-0.05531 -0.04587,0.283657 0.01127,0.230829 0.176402,-0.4346 0.488774,-0.719572 0.822321,-1.013543 3.03492,-0.501029 6.215523,-0.542086 7.84477,2.865771 0.594829,1.2442 0.919349,2.606229 0.950766,3.991629 0.388876,-3.958486 -0.551178,-7.975972 -2.876474,-10.4638 -0.02751,-0.02946 0.182414,0.0722 0.154516,0.0432 -0.08593,-0.08934 -0.411408,-0.3074 -0.501027,-0.392572 -0.05484,-0.05208 0.246459,0.134543 0.303641,0.08514 0.07499,-0.0648 -0.629057,-0.378914 -0.710551,-0.4464 -0.02825,-0.02343 0.149351,0.0732 0.254712,0.102943 0.06928,0.01943 0.08615,-0.02029 0.06722,-0.03526 C 21.835512,7.286241 20.85701,6.783153 19.79081,6.448667 c -0.08534,-0.02677 0.328007,-0.01786 0.241625,-0.04241 -0.521371,-0.05138 -1.086834,-0.194206 -1.558207,-0.272769 -0.128715,-0.02123 0.570316,-0.177777 0.44125,-0.193294 -0.563604,0.06896 -1.17579,0.08573 -1.709581,0.07965 C 12.441213,6.49845 6.6819573,7.93121 8.8281613,12.777296 Z"
     style="opacity:0.2;fill:#011842;fill-opacity:1;stroke:none;stroke-width:0.07117624px;stroke-linecap:butt;stroke-linejoin:miter;stroke-opacity:1" />
  <path
     id="path826-0"
     d="m 17.120187,5.306251 c -1.581915,-0.02454 -3.060324,0.470231 -4.425978,0.925174 l 0.221435,6.035263 c 3.874597,-0.415057 9.710396,-2.630857 12.049551,2.525429 0.593286,1.307742 0.902545,2.732657 0.906297,4.175657 0.487606,-4.113115 -0.407106,-8.315429 -2.776026,-10.954172 -0.02803,-0.03123 0.188397,0.07892 0.159958,0.04817 -0.0876,-0.09483 -0.421817,-0.328686 -0.51334,-0.4192 -0.05601,-0.05537 0.253799,0.145285 0.314366,0.09506 0.07943,-0.06589 -0.647132,-0.407726 -0.730566,-0.479694 -0.02892,-0.02494 0.153989,0.07942 0.263062,0.112525 0.07172,0.02177 0.09016,-0.01931 0.07076,-0.03528 -0.745934,-0.613608 -1.754114,-1.157931 -2.857168,-1.52846 -0.08829,-0.02966 0.341806,-0.01163 0.252386,-0.039 -0.541738,-0.06439 -1.127431,-0.224931 -1.616546,-0.316577 -0.133566,-0.0248 0.597486,-0.173154 0.463437,-0.192006 -0.588224,0.06001 -1.226009,0.0646 -1.781625,0.04712 z"
     style="fill:url(#linearGradient1345-9);fill-opacity:1;stroke:none;stroke-width:0.07411817px;stroke-linecap:butt;stroke-linejoin:miter;stroke-opacity:1" />
  <path
     id="path834-8"
     d="m 16.655536,10.711802 c -1.796441,0.7024 -3.923211,2.577686 -3.905105,2.594686 0.01286,0.01229 0.05118,-0.03371 0.06334,-0.02457 0.002,0 -0.195334,0.144085 -0.174269,0.162285 0.01804,0.01572 0.04892,-0.03203 0.06821,-0.01714 0.02333,0.018 -0.513236,0.672057 -0.699097,0.974885 0,0 -0.457671,1.074229 0.300225,1.127286 1.025087,0.0718 0.89579,-0.696172 1.33142,-1.060171 0.460758,-0.385 1.087847,-0.930172 1.686126,-1.456229 0.05114,-0.04494 -0.03433,0.2662 0.01628,0.221629 0.186532,-0.340229 0.357292,-0.550486 0.630821,-0.792772 0.06361,-0.05634 -0.05378,0.294343 0.0068,0.240572 0.250422,-0.583086 0.734283,-0.898086 1.197373,-1.313258"
     style="fill:url(#linearGradient914-1);fill-opacity:1;stroke:none;stroke-width:0.07411817px;stroke-linecap:butt;stroke-linejoin:miter;stroke-opacity:1" />
  <path
     id="path836-5"
     d="m 8.3452153,12.052231 c -0.209189,0.271257 -0.745688,0.950886 -0.701979,0.971971 0.0222,0.01086 0.07072,-0.08188 0.09038,-0.06714 0.0046,0.0034 -0.186342,0.246885 -0.165664,0.267771 0.01683,0.01714 0.07221,-0.1058 0.09644,-0.0894 0.0322,0.022 -0.546579,1.051314 -0.665096,1.399257 -0.07394,0.217086 -0.01696,0.711286 0.363329,0.7052 0.383549,-0.0063 0.819908,-0.336571 0.928868,-0.714686 0.110695,-0.384142 0.670723,-1.248228 0.793778,-1.224142"
     style="fill:url(#linearGradient878-8);fill-opacity:1;stroke:none;stroke-width:0.07411817px;stroke-linecap:butt;stroke-linejoin:miter;stroke-opacity:1" />
  <path
     id="path828-5-0"
     d="m 13.575093,5.944528 c -0.298108,0.09429 -0.592728,0.191249 -0.880884,0.287237 l 0.221435,6.034923 c 0.365221,-0.05046 0.736187,-0.105428 1.1096,-0.157943 0.07684,-0.07794 0.129132,-0.166114 0.143483,-0.267971 0.20977,-1.595914 0.06731,-2.932543 -0.339933,-4.455655 0.04209,-0.08655 -0.04817,-0.720594 -0.253701,-1.440591 z"
     style="fill:url(#radialGradient3304-7);fill-opacity:1;stroke:none;stroke-width:0.07411609px;stroke-linecap:butt;stroke-linejoin:miter;stroke-opacity:1" />
  <path
     id="path828-6"
     d="M 10.349779,7.237271 C 9.1948433,8.041088 6.4924883,9.633802 8.7513623,13.04666 c -0.02123,0.1068 -0.03367,0.264285 -0.03887,0.465914 -9.14e-4,0.03526 0.03499,-0.0712 0.03452,-0.03326 -4e-4,0.03226 -0.0013,0.068 -0.0025,0.106514 -3.42e-4,0.01086 0.02752,-0.0536 0.02714,-0.04246 -0.0086,0.2502 -0.231494,0.745371 -0.04637,0.960485 0.558047,0.648486 1.240445,0.428 1.8279327,0.01543 0.05319,-0.03737 0.106596,-0.07737 0.160341,-0.1198 0.06947,-0.05483 0.139501,-0.113771 0.210325,-0.176257 0.02969,-0.02629 0.0078,0.116343 0.03775,0.08891 0.260263,-0.464028 0.726176,-0.838628 1.04034,-1.162743 0.231988,-0.239085 1.479822,-0.3902 1.559866,-0.958428 0.02849,-0.216772 -0.04475,-0.951343 0.0012,-0.955057 0.04032,-0.0034 0.01389,0.141085 0.06237,0.144114 0.0549,0.0034 0.01909,-0.177714 0.02713,-0.176686 0.01138,0 0.07337,0.157572 0.08607,0.157343 0.06273,0 -0.143464,-0.742343 -0.10529,-0.743486 0.04946,0 0.04062,0.142829 0.103109,0.143543 0.03318,2.86e-4 -0.300844,-1.033486 -0.215974,-1.031486 0.06889,0.0029 0.08943,0.195943 0.164548,0.212972 0.062,0.014 -0.290817,-1.533429 -0.437384,-2.108486 -0.004,-0.01571 0.03613,-0.02114 0.04555,-0.03546 0.006,-0.0091 -0.0227,-0.02926 -0.01125,-0.03389 0.0131,-0.0054 0.05243,0.01143 0.05647,0.0031 0.01411,-0.02829 -0.0983,-0.06154 -0.07682,-0.09511 0.01029,-0.016 -0.0016,-0.07674 0.01061,-0.09629 0.07076,-0.113397 0.184172,-0.226686 0.140729,-0.235088 -0.04866,-0.0094 -0.105453,0.125685 -0.155839,0.124348 -0.02593,-5.71e-4 0.08326,-0.283097 0.0602,-0.28746 -0.05524,-0.01043 -0.121898,0.136486 -0.169199,0.159912 -0.01493,0.0074 0.07568,-0.13448 0.0145,-0.136038 -0.01115,-2.82e-4 -0.06492,0.08311 -0.08161,0.04309 -0.186177,-0.446543 -0.771779,-2.908094 -1.573742,-3.205089 -0.01597,-0.0059 0.01095,-0.217865 -0.03719,-0.220948 -0.01451,-8.57e-4 -0.06665,0.22618 -0.114748,0.21444 -0.04693,-0.01146 -0.0897,-0.262117 -0.115263,-0.235929 -0.02783,0.02851 0.0032,0.210226 -0.0139,0.199992 -0.09351,-0.05593 -0.135122,-0.09445 -0.164132,-0.09301 -0.07259,0.0036 0.126412,0.13328 0.06416,0.172683 -0.03127,0.01977 -0.141265,-0.01746 -0.170075,0.0102 -0.01697,0.01631 0.04645,0.09505 0.0303,0.113854 -0.594811,0.692692 -0.636528,3.036335 -0.636528,3.036335 z"
     style="fill:url(#linearGradient862-2);fill-opacity:1;stroke:none;stroke-width:0.07411817px;stroke-linecap:butt;stroke-linejoin:miter;stroke-opacity:1" />
  <path
     id="path838-4"
     d="m 8.5196673,12.687631 c 0.09306,-0.024 0.176324,0.03269 0.261063,0.07717 l -0.172953,0.04697 z"
     style="fill:#501616;stroke:none;stroke-width:0.07411817px;stroke-linecap:butt;stroke-linejoin:miter;stroke-opacity:1" />
  <path
     id="path840-6"
     d="m 9.6977163,12.32866 c 0.253081,-0.356886 0.4752197,-0.7562 0.7962417,-1.019943 l 0.0979,0.04697 c -0.332435,0.280143 -0.6086907,0.632457 -0.8941397,0.972972 z"
     style="fill:#501616;stroke:none;stroke-width:0.07411817px;stroke-linecap:butt;stroke-linejoin:miter;stroke-opacity:1" />
  <path
     id="path844-2"
     d="m 8.9983103,14.293917 c -0.02939,-0.02954 -0.0214,-0.103715 0.0047,-0.136057 0.09689,-0.119972 0.151982,-0.215743 0.380956,-0.229658 0.02588,-0.0029 0.04655,0 0.072,0.016 0.01697,0.01143 0.01768,0.024 0.0227,0.04494 0.0127,0.05297 0.02968,0.106086 0.0026,0.151543 -0.08376,0.140657 -0.0119,0.178914 -0.0024,0.226829 -0.01246,0.03814 -0.03135,0.07497 -0.104424,0.100657 -0.17409,-0.0069 -0.256911,-0.05431 -0.376152,-0.174143 z"
     style="fill:#550000;stroke:none;stroke-width:0.07411817px;stroke-linecap:butt;stroke-linejoin:miter;stroke-opacity:1" />
  <path
     id="path846-5"
     d="m 9.5541303,14.764431 -0.0053,-0.01086 c 0.293846,-0.134972 0.5712447,-0.326286 0.8471197,-0.522829 l 0.0197,0.03049 c -0.277789,0.181257 -0.5541437,0.364571 -0.8615127,0.503257 z"
     style="fill:#501616;stroke:none;stroke-width:0.07411817px;stroke-linecap:butt;stroke-linejoin:miter;stroke-opacity:1" />
  <path
     id="path1352-1-8"
     d="m 22.525643,20.756917 c -0.03872,-0.04177 -0.434402,-0.366457 -0.335545,-0.270943 0.402071,0.388514 0.241816,1.865971 -0.665429,2.964257 -0.739838,0.895629 -3.281882,1.770343 -4.401953,0.01 0.627388,0.330943 1.274059,0.393229 1.826871,0.292229 0.138232,-0.02514 -0.20604,-0.129029 -0.08131,-0.173 0.26265,-0.0029 0.490439,-0.02909 0.693914,-0.0936 0.05974,-0.01914 -0.244617,-0.01686 -0.188812,-0.04292 0.404408,-0.02743 0.655603,-0.205743 0.896238,-0.455914 1.009741,-1.530171 0.546217,-3.498086 -1.597555,-3.820686 -0.946529,-0.08549 -2.125131,0.288143 -3.266356,0.942257 -0.0954,0.05463 0.295201,0.03083 0.200485,0.08932 -0.676581,0.138828 -1.243662,0.575714 -1.711185,0.962 -0.07973,0.06617 0.426476,-0.03734 0.348724,0.0312 -2.25215,1.2148 -3.564679,4.661657 -2.560618,6.188057 -0.663073,0.02 -1.611103,-0.04151 -2.1076187,-0.09663 -0.870843,-0.09666 -1.512182,-0.518485 -2.219236,-1.0738 -0.144053,-0.118171 0.554713,0.288143 0.43692,0.1506 -0.283715,-0.540257 -0.672057,-0.698228 -0.991988,-1.220085 -0.04064,-0.08349 0.457571,0.351914 0.423067,0.264714 -0.116412,-0.770229 -0.56749,-1.654229 -0.61936,-2.397086 -0.0014,-0.148914 0.3162,0.3914 0.325382,0.238943 0.269708,-1.352629 0.906681,-2.123629 1.498624,-3.267714 0.09259,-0.09783 0.02444,0.4304 0.124721,0.334885 2.9605447,-2.821085 9.1577077,-4.615543 11.7482467,-2.748971 0.333163,0.327743 0.726653,0.515171 1.074296,0.846314 0.05179,0.05443 -0.356266,-0.195428 -0.304963,-0.1368 0.298958,0.5738 0.821214,0.848314 1.192922,1.366629 0.04111,0.06791 -0.415942,-0.270972 -0.375272,-0.199886 0.221484,0.387229 0.434398,0.824886 0.636833,1.316543 z"
     style="opacity:0.3;fill:#001842;fill-opacity:1;stroke:none;stroke-width:0.07800508px;stroke-linecap:butt;stroke-linejoin:miter;stroke-opacity:1" />
  <path
     id="path1352-6"
     d="m 23.335739,20.559917 c -0.0403,-0.04514 -0.454231,-0.398057 -0.351103,-0.294572 0.419437,0.420829 0.219635,1.987429 -0.766271,3.136229 -0.803984,0.936828 -3.522406,1.815371 -4.677303,-0.07749 0.659989,0.364172 1.345836,0.443257 1.935221,0.347 0.147386,-0.024 -0.216338,-0.141171 -0.08293,-0.185457 0.279106,0.0029 0.521687,-0.02086 0.739151,-0.08566 0.06386,-0.01914 -0.25957,-0.02286 -0.199754,-0.04934 0.430239,-0.02086 0.700694,-0.205514 0.961369,-0.466514 1.103443,-1.605629 0.650278,-3.705829 -1.621046,-4.091429 -1.003984,-0.109743 -2.263724,0.263686 -3.489359,0.935829 -0.102452,0.05617 0.313038,0.03868 0.211232,0.09894 -0.721646,0.133972 -1.332906,0.586829 -1.837373,0.987943 -0.08604,0.06872 0.453893,-0.031 0.369898,0.04009 -2.417206,1.245743 -3.880668,4.881829 -2.844356,6.523686 -0.704917,0.008 -1.7109777,-0.07631 -2.2374287,-0.1448 -0.923345,-0.120114 -1.596342,-0.581114 -2.336491,-1.185257 -0.150695,-0.128457 0.583629,0.317257 0.46122,0.168743 -0.290651,-0.579715 -0.700108,-0.755315 -1.029606,-1.3162 -0.04152,-0.08951 0.479137,0.383057 0.44422,0.289714 -0.108294,-0.820686 -0.569898,-1.768943 -0.610163,-2.559286 0.0015,-0.158257 0.328142,0.4222 0.340946,0.2604 0.313602,-1.4318 1.005798,-2.238257 1.657611,-3.442029 0.100329,-0.102057 0.01736,0.4578 0.125822,0.358286 3.2019857,-2.9382 9.8223797,-4.720971 12.5375357,-2.685943 0.347437,0.354886 0.761776,0.561857 1.124531,0.920657 0.05394,0.05891 -0.374629,-0.214742 -0.321292,-0.151457 0.306177,0.615686 0.85559,0.917772 1.240174,1.475943 0.04232,0.07294 -0.436525,-0.296257 -0.394735,-0.219914 0.22759,0.415857 0.445063,0.885114 0.650327,1.411571 z"
     style="fill:url(#linearGradient1174);fill-opacity:1;stroke:none;stroke-width:0.08289558px;stroke-linecap:butt;stroke-linejoin:miter;stroke-opacity:1" />
  <path
     id="path1352-7-2"
     d="m 22.218365,23.401574 c -0.803984,0.936828 -3.522406,1.815371 -4.677303,-0.07749 0.659989,0.364172 1.345836,0.443286 1.935221,0.347029 0.147386,-0.024 -0.216338,-0.141172 -0.08293,-0.185486 0.279106,0.0029 0.521687,-0.02086 0.739151,-0.08566 0.06386,-0.01914 -0.25957,-0.02286 -0.199754,-0.04934 0.430239,-0.02086 0.700694,-0.205514 0.961369,-0.466514 0.180551,-0.256657 0.285441,-0.497372 0.285441,-0.497372 0.06694,0.02863 -0.121008,0.6248 0.0042,0.714086 0.02616,0.01857 0.20678,-0.243857 0.20678,-0.243857 0.05173,0.01857 0.04013,0.280028 0.129145,0.160314 0.202073,-0.271714 0.429987,-0.674914 0.429987,-0.674914 0.03836,0.01286 -0.135898,0.565286 -0.09725,0.596428 0.04686,0.03774 0.120467,-0.120171 0.120467,-0.120171 0.03073,0.0097 0.01917,0.145229 0.01595,0.186171 -0.0055,0.07054 0.12592,-0.05994 0.166265,-0.08248 0.04699,-0.02629 -0.03906,0.274171 -0.02213,0.301657 0.02118,0.0344 0.409688,-0.3968 0.472049,-0.353572 0,0 -0.177438,0.289543 -0.386652,0.531172 z"
     style="fill:#501616;fill-opacity:1;stroke:none;stroke-width:0.08289558px;stroke-linecap:butt;stroke-linejoin:miter;stroke-opacity:1" />
</svg>
