<?xml version="1.0" encoding="UTF-8" standalone="no"?>
<svg
   xmlns:dc="http://purl.org/dc/elements/1.1/"
   xmlns:cc="http://creativecommons.org/ns#"
   xmlns:rdf="http://www.w3.org/1999/02/22-rdf-syntax-ns#"
   xmlns:svg="http://www.w3.org/2000/svg"
   xmlns="http://www.w3.org/2000/svg"
   xmlns:xlink="http://www.w3.org/1999/xlink"
   width="64"
   height="64"
   viewBox="0 0 64 64.000002"
   version="1.1"
   id="svg4319">
  <defs
     id="defs4313">
    <linearGradient
       xlink:href="#linearGradient2936"
       id="linearGradient1360-7-6-5"
       x1="136.81311"
       y1="173.91913"
       x2="167.58571"
       y2="126.60291"
       gradientUnits="userSpaceOnUse"
       gradientTransform="matrix(0.50609016,0.43076073,-0.44088551,0.52131545,19.323409,959.64707)" />
    <linearGradient
       id="linearGradient2936">
      <stop
         id="stop2932"
         offset="0"
         style="stop-color:#dfb14e;stop-opacity:1" />
      <stop
         id="stop2934"
         offset="1"
         style="stop-color:#b54047;stop-opacity:1" />
    </linearGradient>
    <linearGradient
       xlink:href="#linearGradient860"
       id="linearGradient862-2-9-8"
       x1="112.46608"
       y1="104.08393"
       x2="133.64702"
       y2="104.08393"
       gradientUnits="userSpaceOnUse"
       gradientTransform="matrix(0.5939911,0,0,0.61069184,-52.842166,1012.9658)" />
    <linearGradient
       id="linearGradient860">
      <stop
         style="stop-color:#dfb24f;stop-opacity:1"
         offset="0"
         id="stop856" />
      <stop
         style="stop-color:#d58b2f;stop-opacity:1"
         offset="1"
         id="stop858" />
    </linearGradient>
    <radialGradient
       xlink:href="#linearGradient1019"
       id="radialGradient3304-9-4-7"
       gradientUnits="userSpaceOnUse"
       gradientTransform="matrix(0.22977456,-0.00565675,0.0149448,0.75729926,-94.653878,784.00944)"
       cx="495.03906"
       cy="390.91138"
       fx="495.03906"
       fy="390.91138"
       r="10.743572" />
    <linearGradient
       id="linearGradient1019">
      <stop
         id="stop1015"
         offset="0"
         style="stop-color:#be5133;stop-opacity:1" />
      <stop
         id="stop1017"
         offset="1"
         style="stop-color:#81176b;stop-opacity:0" />
    </linearGradient>
    <linearGradient
       xlink:href="#linearGradient860"
       id="linearGradient878-6-5-2"
       x1="109.17788"
       y1="119.1124"
       x2="116.98858"
       y2="119.1124"
       gradientUnits="userSpaceOnUse"
       gradientTransform="matrix(0.5939911,0,0,0.61069184,-52.842166,1012.9658)" />
    <linearGradient
       xlink:href="#linearGradient912"
       id="linearGradient914-1-4-2"
       x1="124.89785"
       y1="118.32003"
       x2="144.10342"
       y2="118.32003"
       gradientUnits="userSpaceOnUse"
       gradientTransform="matrix(0.5939911,0,0,0.61069184,-51.564178,1012.9088)" />
    <linearGradient
       id="linearGradient912">
      <stop
         style="stop-color:#d99b3c;stop-opacity:1"
         offset="0"
         id="stop908" />
      <stop
         style="stop-color:#c96e35;stop-opacity:1"
         offset="1"
         id="stop910" />
    </linearGradient>
    <linearGradient
       xlink:href="#linearGradient2453"
       id="linearGradient1345-3-4-0"
       gradientUnits="userSpaceOnUse"
       x1="130.76288"
       y1="128.29868"
       x2="176.97937"
       y2="115.77173"
       gradientTransform="matrix(0.5939911,0,0,0.61069184,-52.842166,1012.9658)" />
    <linearGradient
       id="linearGradient2453">
      <stop
         id="stop2447"
         offset="0"
         style="stop-color:#d68e31;stop-opacity:1" />
      <stop
         id="stop2449"
         offset="0.82477462"
         style="stop-color:#be5133;stop-opacity:1" />
      <stop
         id="stop2451"
         offset="1"
         style="stop-color:#a3206d;stop-opacity:1" />
    </linearGradient>
    <radialGradient
       xlink:href="#linearGradient922"
       id="radialGradient3302-7-8-9"
       gradientUnits="userSpaceOnUse"
       gradientTransform="matrix(0.59423886,0,0,0.59423881,-52.868845,1014.927)"
       cx="146.95654"
       cy="147.13304"
       fx="146.95654"
       fy="147.13304"
       r="35" />
    <linearGradient
       id="linearGradient922">
      <stop
         style="stop-color:#9d1c6f;stop-opacity:1"
         offset="0"
         id="stop918" />
      <stop
         style="stop-color:#590f66;stop-opacity:1"
         offset="1"
         id="stop920" />
    </linearGradient>
    <linearGradient
       xlink:href="#linearGradient860"
       id="linearGradient854-5-8-0"
       x1="105.04161"
       y1="99.608566"
       x2="119.384"
       y2="99.608566"
       gradientUnits="userSpaceOnUse"
       gradientTransform="matrix(0.55468827,0,0,0.57028401,-48.158487,1017.2884)" />
    <linearGradient
       gradientTransform="matrix(0.50608966,0.43076031,-0.44088508,0.52131493,-37.879953,-105.41879)"
       gradientUnits="userSpaceOnUse"
       y2="126.60291"
       x2="167.58571"
       y1="173.91913"
       x1="136.81311"
       id="linearGradient1360-6"
       xlink:href="#linearGradient2936" />
    <linearGradient
       gradientTransform="matrix(0.59399051,0,0,0.61069127,-110.04544,-52.100219)"
       gradientUnits="userSpaceOnUse"
       y2="104.08393"
       x2="133.64702"
       y1="104.08393"
       x1="112.46608"
       id="linearGradient862-2"
       xlink:href="#linearGradient860" />
    <radialGradient
       r="10.743572"
       fy="390.91138"
       fx="495.03906"
       cy="390.91138"
       cx="495.03906"
       gradientTransform="matrix(0.22977433,-0.00565674,0.01494477,0.75729855,-151.85711,-281.05628)"
       gradientUnits="userSpaceOnUse"
       id="radialGradient3304-7"
       xlink:href="#linearGradient1019" />
    <linearGradient
       gradientTransform="matrix(0.59399051,0,0,0.61069127,-110.04544,-52.100219)"
       gradientUnits="userSpaceOnUse"
       y2="119.1124"
       x2="116.98858"
       y1="119.1124"
       x1="109.17788"
       id="linearGradient878-8"
       xlink:href="#linearGradient860" />
    <linearGradient
       gradientTransform="matrix(0.59399051,0,0,0.61069127,-108.76746,-52.157348)"
       gradientUnits="userSpaceOnUse"
       y2="118.32003"
       x2="144.10342"
       y1="118.32003"
       x1="124.89785"
       id="linearGradient914-1"
       xlink:href="#linearGradient912" />
    <linearGradient
       gradientTransform="matrix(0.59399051,0,0,0.61069127,-110.04544,-52.100219)"
       y2="115.77173"
       x2="176.97937"
       y1="128.29868"
       x1="130.76288"
       gradientUnits="userSpaceOnUse"
       id="linearGradient1345-9"
       xlink:href="#linearGradient2453" />
    <radialGradient
       r="35"
       fy="147.13304"
       fx="146.95654"
       cy="147.13304"
       cx="146.95654"
       gradientTransform="matrix(0.59423827,0,0,0.59423822,-110.07213,-50.138983)"
       gradientUnits="userSpaceOnUse"
       id="radialGradient3302-0"
       xlink:href="#linearGradient922" />
    <linearGradient
       gradientTransform="matrix(0.55468772,0,0,0.57028344,-105.36177,-47.777734)"
       gradientUnits="userSpaceOnUse"
       y2="99.608566"
       x2="119.384"
       y1="99.608566"
       x1="105.04161"
       id="linearGradient854-0"
       xlink:href="#linearGradient860" />
  </defs>
  <metadata
     id="metadata4316">
    <rdf:RDF>
      <cc:Work
         rdf:about="">
        <dc:format>image/svg+xml</dc:format>
        <dc:type
           rdf:resource="http://purl.org/dc/dcmitype/StillImage" />
        <dc:title></dc:title>
      </cc:Work>
    </rdf:RDF>
  </metadata>
  <g
     id="layer1"
     transform="translate(0,-1058.5197)">
    <path
       style="fill:url(#linearGradient854-5-8-0);fill-opacity:1;stroke:none;stroke-width:0.14881016px;stroke-linecap:butt;stroke-linejoin:miter;stroke-opacity:1"
       d="m 10.827339,1070.1955 c 2.491157,1.5333 4.671249,3.0189 7.115712,3.448 l -2.779716,4.6489 c -0.331977,-0.2933 -0.555288,-0.4769 -0.860648,-0.7634 -0.01471,-0.014 -0.119532,0.1434 -0.190797,0.098 -0.07206,-0.046 0.09615,-0.1779 0.08355,-0.1898 -0.01038,-0.01 -0.415882,0.3194 -0.386522,0.1477 0.0383,-0.224 0.22724,-0.2063 0.204896,-0.2474 -0.02237,-0.041 -0.158958,0.03 -0.166567,0.023 -0.03498,-0.033 0.130456,-0.154 0.09584,-0.1871 -2.724727,-2.6079 -4.2587906,-4.9309 -3.706083,-6.9276 0.009,-0.031 -0.3685526,-0.5731 -0.188088,-0.5649 0.14764,0.01 0.265224,0.3794 0.315374,0.369 0.01899,-0.01 -0.0103,-0.5666 0.06075,-0.5619 0.15358,0.01 0.209499,0.6533 0.263198,0.6527 0.05957,0 -0.09584,-0.4196 0.04023,-0.4429 0.16218,-0.028 0.0783,0.3398 0.09889,0.4978 z"
       id="path832-3-3-1" />
    <path
       style="fill:url(#radialGradient3302-7-8-9);fill-opacity:1;stroke:none;stroke-width:0.31351525;stroke-miterlimit:4;stroke-dasharray:none;stroke-opacity:1"
       d="m 31.942749,1075.9233 c -11.48659,0 -20.798306,9.3117 -20.798316,20.7983 1e-5,11.4865 9.311726,20.7983 20.798316,20.7983 11.486578,0 20.798296,-9.3118 20.798316,-20.7983 -2e-5,-11.4866 -9.311738,-20.7984 -20.798316,-20.7983 z"
       id="path916-6-1-7" />
    <path
       style="opacity:0.2;fill:#3c1842;fill-opacity:1;stroke:none;stroke-width:0.15302907px;stroke-linecap:butt;stroke-linejoin:miter;stroke-opacity:1"
       d="m 16.080514,1083.7152 c -0.483156,0.6492 -1.312197,1.7587 -1.230985,1.7958 0.04626,0.021 0.142682,-0.1716 0.183883,-0.142 0.01012,0.01 -0.374509,0.5172 -0.330949,0.5595 0.03537,0.034 0.144677,-0.2215 0.195383,-0.1887 0.06742,0.044 -1.084533,2.1929 -1.314748,2.916 -0.143629,0.4512 -0.0051,1.4688 0.779173,1.4405 0.791479,-0.028 1.678372,-0.7287 1.887613,-1.5138 0.123734,-0.4642 0.554179,-1.2636 0.943322,-1.8477 -0.01915,0.5243 -0.0778,1.2662 -0.04878,1.7858 1.425884,1.0426 2.578498,0.8325 3.774116,-0.045 0.108235,-0.08 0.216671,-0.1639 0.325851,-0.2539 0.14114,-0.1161 0.283399,-0.2407 0.427008,-0.3727 0.06017,-0.056 0.02086,0.24 0.08174,0.1821 0.518017,-0.9687 1.46402,-1.7612 2.09911,-2.4433 0.468966,-0.5033 3.038776,-0.8669 3.180459,-2.0432 3.43e-4,-0.01 2.62e-4,-0.01 4.44e-4,-0.013 0.489253,-0.081 0.990208,-0.1693 1.500385,-0.2645 -1.818948,1.3565 -3.15105,2.5955 -3.129825,2.6146 0.02701,0.025 0.104313,-0.072 0.129802,-0.054 0.004,-10e-5 -0.397166,0.3055 -0.352931,0.3425 0.0379,0.031 0.09968,-0.069 0.140112,-0.039 0.04888,0.036 -1.031651,1.4088 -1.402753,2.0416 0,0 -0.900217,2.2364 0.666465,2.3146 2.119005,0.1057 1.820136,-1.4744 2.704297,-2.2437 0.935159,-0.8139 2.207042,-1.9651 3.420238,-3.0759 0.103718,-0.095 -0.05976,0.5509 0.04284,0.4568 0.370951,-0.7101 0.71459,-1.151 1.269182,-1.6625 0.128985,-0.1188 -0.09857,0.6099 0.02429,0.4963 0.379256,-0.9344 1.05086,-1.547 1.76799,-2.1791 6.525077,-1.0773 13.363396,-1.1655 16.866269,6.1615 1.278877,2.675 1.976606,5.6033 2.044143,8.5821 0.836096,-8.5109 -1.185016,-17.1484 -6.184423,-22.4973 -0.05916,-0.064 0.392196,0.1553 0.332219,0.093 -0.18477,-0.1922 -0.884535,-0.6609 -1.077216,-0.8442 -0.117919,-0.112 0.529891,0.2893 0.652828,0.1832 0.161227,-0.1393 -1.352482,-0.8148 -1.527687,-0.9598 -0.06078,-0.051 0.321113,0.1574 0.547639,0.2215 0.14895,0.042 0.185223,-0.044 0.144516,-0.077 -1.56522,-1.2359 -3.668997,-2.3174 -5.961333,-3.0365 -0.183491,-0.058 0.705206,-0.038 0.519498,-0.091 -1.120947,-0.1105 -2.336693,-0.4176 -3.350152,-0.5864 -0.276747,-0.045 1.226178,-0.3823 0.948684,-0.4157 -1.211744,0.1483 -2.527953,0.1842 -3.675608,0.1714 -10.244074,1.0289 -22.626481,4.1094 -18.012152,14.5284 z"
       id="path826-7-1-4-7" />
    <path
       style="fill:url(#linearGradient1345-3-4-0);fill-opacity:1;stroke:none;stroke-width:0.15935421px;stroke-linecap:butt;stroke-linejoin:miter;stroke-opacity:1"
       d="m 33.908399,1067.6527 c -3.401129,-0.054 -6.579703,1.011 -9.515859,1.9892 l 0.476081,12.9757 c 8.330389,-0.8923 20.877373,-5.6563 25.906561,5.4297 1.275572,2.8116 1.940475,5.8752 1.948537,8.9777 1.048362,-8.8432 -0.875271,-17.8782 -5.968468,-23.5515 -0.06027,-0.068 0.405067,0.1697 0.34392,0.1037 -0.188338,-0.204 -0.906909,-0.7068 -1.103683,-0.9013 -0.120428,-0.1191 0.545674,0.3122 0.675888,0.2042 0.170772,-0.1415 -1.391334,-0.8765 -1.570712,-1.0313 -0.06218,-0.054 0.331071,0.1707 0.565579,0.242 0.154202,0.047 0.193841,-0.042 0.152126,-0.076 -1.603761,-1.3194 -3.771345,-2.4898 -6.14292,-3.2863 -0.18982,-0.064 0.734887,-0.025 0.542629,-0.084 -1.164728,-0.1384 -2.423973,-0.4836 -3.475569,-0.6806 -0.287168,-0.054 1.284592,-0.3724 0.996386,-0.4129 -1.264678,0.1291 -2.635925,0.1389 -3.830496,0.1012 z"
       id="path826-0-9-1" />
    <path
       style="fill:url(#linearGradient914-1-4-2);fill-opacity:1;stroke:none;stroke-width:0.15935421px;stroke-linecap:butt;stroke-linejoin:miter;stroke-opacity:1"
       d="m 32.909403,1079.2746 c -3.862354,1.5101 -8.434914,5.542 -8.39599,5.5786 0.02761,0.026 0.110048,-0.073 0.136181,-0.054 0.004,0 -0.419963,0.3098 -0.37468,0.349 0.0388,0.033 0.10519,-0.069 0.146653,-0.036 0.05019,0.038 -1.103471,1.4451 -1.503066,2.096 0,0 -0.983989,2.3098 0.645491,2.4236 2.203938,0.1544 1.925942,-1.4966 2.862552,-2.2793 0.990622,-0.8278 2.33888,-1.9999 3.625175,-3.131 0.109958,-0.097 -0.07378,0.5725 0.03508,0.4765 0.401045,-0.7314 0.768177,-1.1835 1.356271,-1.7045 0.136766,-0.1211 -0.115631,0.6329 0.01471,0.5173 0.538416,-1.2535 1.578715,-1.9307 2.574365,-2.8235"
       id="path834-6-2-1" />
    <path
       style="fill:url(#linearGradient878-6-5-2);fill-opacity:1;stroke:none;stroke-width:0.15935421px;stroke-linecap:butt;stroke-linejoin:miter;stroke-opacity:1"
       d="m 15.042191,1082.1566 c -0.449766,0.5832 -1.603236,2.0443 -1.509253,2.0897 0.04767,0.023 0.152045,-0.1761 0.194324,-0.1444 0.01012,0.01 -0.400642,0.5309 -0.356196,0.5757 0.03618,0.036 0.15525,-0.2275 0.207356,-0.1922 0.06925,0.047 -1.175155,2.2604 -1.42995,3.0084 -0.158972,0.4668 -0.03646,1.5291 0.781154,1.5162 0.824626,-0.013 1.762809,-0.7236 1.997064,-1.5367 0.237996,-0.8259 1.44206,-2.6836 1.706633,-2.6318"
       id="path836-3-0-5" />
    <path
       style="fill:url(#radialGradient3304-9-4-7);fill-opacity:1;stroke:none;stroke-width:0.15934974px;stroke-linecap:butt;stroke-linejoin:miter;stroke-opacity:1"
       d="m 26.286432,1069.025 c -0.640915,0.2027 -1.274353,0.4112 -1.893892,0.6176 l 0.476081,12.975 c 0.785221,-0.1086 1.582807,-0.2267 2.385644,-0.3397 0.165198,-0.1675 0.277635,-0.357 0.308484,-0.5761 0.451006,-3.4311 0.144709,-6.3048 -0.730856,-9.5796 0.0905,-0.1859 -0.103557,-1.5491 -0.545461,-3.0972 z"
       id="path828-5-2-6-9" />
    <path
       style="fill:url(#linearGradient862-2-9-8);fill-opacity:1;stroke:none;stroke-width:0.15935421px;stroke-linecap:butt;stroke-linejoin:miter;stroke-opacity:1"
       d="m 19.352002,1071.8044 c -2.483113,1.7281 -8.293187,5.1525 -3.436595,12.4901 -0.04556,0.2297 -0.07236,0.5683 -0.08355,1.0018 -0.002,0.076 0.07529,-0.1532 0.07418,-0.072 -4.53e-4,0.069 -0.004,0.1462 -0.0051,0.2289 -4.43e-4,0.023 0.05916,-0.1151 0.05836,-0.092 -0.01855,0.5379 -0.49771,1.6025 -0.09968,2.0651 1.199811,1.3942 2.666966,0.9202 3.930071,0.033 0.114342,-0.081 0.229176,-0.1664 0.344727,-0.2576 0.149365,-0.1179 0.299927,-0.2445 0.452205,-0.3789 0.06379,-0.057 0.01674,0.2501 0.08113,0.1911 0.559562,-0.9976 1.56128,-1.8031 2.236735,-2.5 0.498777,-0.514 3.181618,-0.8388 3.353719,-2.0606 0.06118,-0.4661 -0.09625,-2.0453 0.003,-2.0533 0.08658,-0.01 0.02994,0.3033 0.134085,0.3098 0.11804,0.01 0.04102,-0.382 0.05836,-0.3797 0.02449,0 0.157759,0.3387 0.185042,0.3381 0.134882,0 -0.308434,-1.596 -0.226365,-1.5985 0.10635,0 0.08739,0.3071 0.221679,0.3086 0.07136,0 -0.646812,-2.2219 -0.464339,-2.2176 0.148124,0.01 0.192278,0.4213 0.353786,0.4579 0.133299,0.03 -0.625262,-3.2968 -0.940378,-4.5333 -0.0091,-0.033 0.0777,-0.046 0.09796,-0.076 0.0129,-0.02 -0.04878,-0.064 -0.02419,-0.073 0.02812,-0.012 0.112728,0.025 0.121415,0.01 0.03033,-0.061 -0.211356,-0.1322 -0.165166,-0.2044 0.02217,-0.034 -0.004,-0.165 0.02288,-0.207 0.152136,-0.2439 0.395966,-0.4874 0.302568,-0.5054 -0.104625,-0.021 -0.226717,0.2702 -0.335052,0.2673 -0.05584,0 0.179016,-0.6087 0.129419,-0.618 -0.118756,-0.022 -0.262072,0.2934 -0.363775,0.3437 -0.03215,0.016 0.162708,-0.2892 0.03114,-0.2924 -0.02399,0 -0.139568,0.1786 -0.175447,0.093 -0.400279,-0.9601 -1.659334,-6.2524 -3.383541,-6.8911 -0.03427,-0.013 0.02358,-0.4683 -0.08002,-0.4751 -0.03114,0 -0.143286,0.4865 -0.246703,0.4612 -0.100913,-0.025 -0.192862,-0.5636 -0.247821,-0.5073 -0.05987,0.062 0.0071,0.452 -0.02994,0.43 -0.201047,-0.1202 -0.290514,-0.2031 -0.352892,-0.2001 -0.156066,0.01 0.271779,0.2866 0.137936,0.3714 -0.06722,0.042 -0.303718,-0.037 -0.365651,0.022 -0.03648,0.035 0.09988,0.2044 0.06511,0.2449 -1.278847,1.4893 -1.368546,6.528 -1.368546,6.528 z"
       id="path828-0-8-7" />
    <path
       style="fill:#501616;stroke:none;stroke-width:0.15935421px;stroke-linecap:butt;stroke-linejoin:miter;stroke-opacity:1"
       d="m 15.417265,1083.5227 c 0.200089,-0.053 0.379084,0.07 0.561284,0.1659 l -0.371849,0.1012 z"
       id="path838-6-9-7" />
    <path
       style="fill:#501616;stroke:none;stroke-width:0.15935421px;stroke-linecap:butt;stroke-linejoin:miter;stroke-opacity:1"
       d="m 17.950066,1082.7509 c 0.544131,-0.7673 1.021723,-1.6259 1.711933,-2.1929 l 0.21047,0.1012 c -0.71473,0.6024 -1.30869,1.3599 -1.922403,2.092 z"
       id="path840-1-2-6" />
    <path
       style="fill:#550000;stroke:none;stroke-width:0.15935421px;stroke-linecap:butt;stroke-linejoin:miter;stroke-opacity:1"
       d="m 16.446346,1086.9762 c -0.0633,-0.064 -0.04606,-0.223 0.01012,-0.2926 0.208303,-0.2579 0.326767,-0.4638 0.819054,-0.4937 0.05564,-0.01 0.100084,0 0.154786,0.034 0.03648,0.025 0.03809,0.053 0.04888,0.097 0.02731,0.114 0.06379,0.2281 0.0051,0.3258 -0.180084,0.3024 -0.0256,0.3847 -0.0051,0.4877 -0.02681,0.083 -0.06742,0.1612 -0.224509,0.2164 -0.374297,-0.014 -0.552356,-0.1169 -0.808734,-0.3744 z"
       id="path844-5-6-7" />
    <path
       style="fill:#501616;stroke:none;stroke-width:0.15935421px;stroke-linecap:butt;stroke-linejoin:miter;stroke-opacity:1"
       d="m 17.641369,1087.9879 -0.01149,-0.023 c 0.631754,-0.2902 1.228163,-0.7015 1.821296,-1.124 l 0.04233,0.066 c -0.597246,0.3897 -1.191407,0.7837 -1.852257,1.082 z"
       id="path846-5-6-3" />
    <path
       style="opacity:0.3;fill:#3c1842;fill-opacity:1;stroke:none;stroke-width:0.16771108px;stroke-linecap:butt;stroke-linejoin:miter;stroke-opacity:1"
       d="m 45.530141,1100.8716 c -0.08325,-0.09 -0.933959,-0.7878 -0.721423,-0.5825 0.864448,0.8354 0.519903,4.0119 -1.43067,6.3731 -1.590658,1.9256 -7.056057,3.8063 -9.464217,0.021 1.348884,0.7116 2.739241,0.8455 3.927784,0.6284 0.297197,-0.055 -0.442993,-0.2774 -0.174802,-0.3719 0.564691,-0.01 1.054439,-0.063 1.491909,-0.2014 0.12843,-0.041 -0.52592,-0.037 -0.405945,-0.092 0.869478,-0.06 1.409546,-0.4424 1.926909,-0.9803 2.170951,-3.29 1.174374,-7.5209 -3.434741,-8.2146 -2.035042,-0.1838 -4.569032,0.6197 -7.022676,2.026 -0.205109,0.1175 0.634686,0.067 0.431049,0.1919 -1.454657,0.2986 -2.67388,1.2379 -3.679055,2.0684 -0.171416,0.1422 0.916916,-0.081 0.749754,0.068 -4.842121,2.6117 -7.664067,10.0226 -5.50533,13.3044 -1.425613,0.043 -3.463879,-0.09 -4.53139,-0.2078 -1.872323,-0.2078 -3.25119,-1.1147 -4.771359,-2.3086 -0.309712,-0.254 1.192626,0.6194 0.939382,0.3237 -0.609995,-1.1614 -1.444931,-1.5011 -2.132781,-2.6231 -0.08735,-0.1795 0.983775,0.7566 0.909596,0.5691 -0.250288,-1.656 -1.220105,-3.5565 -1.331632,-5.1536 -0.0036,-0.3202 0.679832,0.8415 0.699577,0.5135 0.579871,-2.9081 1.949364,-4.5657 3.222033,-7.0255 0.199072,-0.2104 0.05261,0.9254 0.268171,0.72 6.365172,-6.0653 19.689081,-9.9234 25.258743,-5.9103 0.716303,0.7046 1.562306,1.1077 2.309742,1.8197 0.111358,0.1169 -0.76598,-0.4202 -0.65567,-0.2943 0.64276,1.2338 1.765611,1.8239 2.56478,2.9383 0.08839,0.1461 -0.89427,-0.5825 -0.806829,-0.4298 0.476192,0.8327 0.93396,1.7736 1.369192,2.8306 z"
       id="path1352-1-4-4-6" />
    <path
       style="fill:url(#linearGradient1360-7-6-5);fill-opacity:1;stroke:none;stroke-width:0.17822568px;stroke-linecap:butt;stroke-linejoin:miter;stroke-opacity:1"
       d="m 47.271846,1100.448 c -0.08658,-0.097 -0.976591,-0.8558 -0.754873,-0.6333 0.901789,0.9047 0.472221,4.2731 -1.647481,6.7429 -1.728573,2.0142 -7.573176,3.9031 -10.0562,-0.1665 1.41897,0.783 2.893533,0.9531 4.16072,0.7461 0.316879,-0.053 -0.465126,-0.3037 -0.1783,-0.3989 0.600077,0.01 1.121622,-0.044 1.589166,-0.1842 0.137311,-0.042 -0.55806,-0.05 -0.429457,-0.106 0.92501,-0.045 1.506492,-0.4419 2.06694,-1.0031 2.372411,-3.4519 1.398097,-7.9676 -3.485244,-8.7966 -2.158575,-0.2358 -4.867025,0.5669 -7.502134,2.012 -0.220277,0.1208 0.673036,0.084 0.45415,0.2128 -1.551543,0.2882 -2.865757,1.2615 -3.95036,2.1241 -0.184982,0.1478 0.975876,-0.067 0.795288,0.086 -5.197006,2.6783 -8.343451,10.4959 -6.115374,14.026 -1.515574,0.017 -3.678613,-0.164 -4.810485,-0.3115 -1.985193,-0.2581 -3.43213,-1.2492 -5.023461,-2.5482 -0.323992,-0.2762 1.254797,0.6821 0.991626,0.3628 -0.624901,-1.2464 -1.50523,-1.6239 -2.213658,-2.8298 -0.08923,-0.1926 1.030153,0.8235 0.95508,0.6228 -0.232837,-1.7645 -1.225284,-3.8033 -1.311853,-5.5023 0.0036,-0.3404 0.7055,0.9075 0.733039,0.5596 0.674242,-3.0783 2.162466,-4.812 3.563869,-7.4001 0.215701,-0.2196 0.03739,0.9841 0.270508,0.7702 6.884289,-6.3171 21.11814,-10.15 26.955729,-5.7748 0.746993,0.763 1.637826,1.208 2.417746,1.9793 0.115983,0.1267 -0.805449,-0.4616 -0.690775,-0.3256 0.658281,1.3238 1.839518,1.9732 2.666383,3.1734 0.09101,0.1567 -0.938535,-0.637 -0.848696,-0.4729 0.489334,0.8941 0.956899,1.903 1.398209,3.035 z"
       id="path1352-7-9-5" />
  </g>
  <path
     id="path1352-7"
     d="m 44.869487,48.037833 c -1.728564,2.014182 -7.573172,3.903049 -10.056201,-0.166594 1.418977,0.782968 2.893548,0.953064 4.160726,0.746111 0.316878,-0.0516 -0.465127,-0.303518 -0.178298,-0.398794 0.600078,0.0061 1.121627,-0.04484 1.589174,-0.184163 0.137296,-0.04116 -0.558074,-0.04914 -0.42947,-0.106087 0.925013,-0.04484 1.506492,-0.441856 2.066943,-1.003006 0.388185,-0.551813 0.613698,-1.069348 0.613698,-1.069348 0.143928,0.06155 -0.260167,1.34332 0.009,1.535284 0.05624,0.03993 0.444577,-0.524293 0.444577,-0.524293 0.111222,0.03993 0.08629,0.602062 0.277662,0.344676 0.434457,-0.584186 0.924471,-1.451066 0.924471,-1.451066 0.08248,0.02764 -0.29218,1.215364 -0.209077,1.282322 0.100748,0.08115 0.259006,-0.258369 0.259006,-0.258369 0.06606,0.02089 0.04121,0.312241 0.0343,0.400269 -0.01192,0.151667 0.270728,-0.128878 0.35747,-0.177345 0.101037,-0.05651 -0.08398,0.589469 -0.04759,0.648563 0.04554,0.07396 0.880829,-0.85312 1.014907,-0.760178 0,0 -0.381492,0.622517 -0.831303,1.142018 z"
     style="fill:#501616;fill-opacity:1;stroke:none;stroke-width:0.17822549px;stroke-linecap:butt;stroke-linejoin:miter;stroke-opacity:1" />
</svg>
