<?xml version="1.0" encoding="UTF-8" standalone="no"?>
<svg
   xmlns:dc="http://purl.org/dc/elements/1.1/"
   xmlns:cc="http://creativecommons.org/ns#"
   xmlns:rdf="http://www.w3.org/1999/02/22-rdf-syntax-ns#"
   xmlns:svg="http://www.w3.org/2000/svg"
   xmlns="http://www.w3.org/2000/svg"
   xmlns:xlink="http://www.w3.org/1999/xlink"
   id="svg4319"
   version="1.1"
   viewBox="0 0 144 144"
   height="144"
   width="144">
  <defs
     id="defs4313">
    <linearGradient
       gradientTransform="matrix(1.1769528,1.0017682,-1.0253142,1.2123604,44.682419,743.37434)"
       gradientUnits="userSpaceOnUse"
       y2="126.60291"
       x2="167.58571"
       y1="173.91913"
       x1="136.81311"
       id="linearGradient1360"
       xlink:href="#linearGradient2936" />
    <linearGradient
       id="linearGradient2936">
      <stop
         style="stop-color:#dfb14e;stop-opacity:1"
         offset="0"
         id="stop2932" />
      <stop
         style="stop-color:#b54047;stop-opacity:1"
         offset="1"
         id="stop2934" />
    </linearGradient>
    <linearGradient
       gradientTransform="matrix(1.3813734,0,0,1.4202123,-123.14434,867.37106)"
       gradientUnits="userSpaceOnUse"
       y2="104.08393"
       x2="133.64702"
       y1="104.08393"
       x1="112.46608"
       id="linearGradient862"
       xlink:href="#linearGradient860" />
    <linearGradient
       id="linearGradient860">
      <stop
         id="stop856"
         offset="0"
         style="stop-color:#dfb24f;stop-opacity:1" />
      <stop
         id="stop858"
         offset="1"
         style="stop-color:#d58b2f;stop-opacity:1" />
    </linearGradient>
    <radialGradient
       r="10.743572"
       fy="390.91138"
       fx="495.03906"
       cy="390.91138"
       cx="495.03906"
       gradientTransform="matrix(0.53435896,-0.01315522,0.03475529,1.7611596,-220.38079,334.91501)"
       gradientUnits="userSpaceOnUse"
       id="radialGradient3304"
       xlink:href="#linearGradient1019" />
    <linearGradient
       id="linearGradient1019">
      <stop
         style="stop-color:#be5133;stop-opacity:1"
         offset="0"
         id="stop1015" />
      <stop
         style="stop-color:#81176b;stop-opacity:0"
         offset="1"
         id="stop1017" />
    </linearGradient>
    <linearGradient
       gradientTransform="matrix(1.3813734,0,0,1.4202123,-123.14434,867.37106)"
       gradientUnits="userSpaceOnUse"
       y2="119.1124"
       x2="116.98858"
       y1="119.1124"
       x1="109.17788"
       id="linearGradient878"
       xlink:href="#linearGradient860" />
    <linearGradient
       gradientTransform="matrix(1.3813734,0,0,1.4202123,-120.17227,867.2382)"
       gradientUnits="userSpaceOnUse"
       y2="118.32003"
       x2="144.10342"
       y1="118.32003"
       x1="124.89785"
       id="linearGradient914"
       xlink:href="#linearGradient912" />
    <linearGradient
       id="linearGradient912">
      <stop
         id="stop908"
         offset="0"
         style="stop-color:#d99b3c;stop-opacity:1" />
      <stop
         id="stop910"
         offset="1"
         style="stop-color:#c96e35;stop-opacity:1" />
    </linearGradient>
    <linearGradient
       gradientTransform="matrix(1.3813734,0,0,1.4202123,-123.14434,867.37106)"
       y2="115.77173"
       x2="176.97937"
       y1="128.29868"
       x1="130.76288"
       gradientUnits="userSpaceOnUse"
       id="linearGradient1345"
       xlink:href="#linearGradient2453" />
    <linearGradient
       id="linearGradient2453">
      <stop
         style="stop-color:#d68e31;stop-opacity:1"
         offset="0"
         id="stop2447" />
      <stop
         style="stop-color:#be5133;stop-opacity:1"
         offset="0.82477462"
         id="stop2449" />
      <stop
         style="stop-color:#a3206d;stop-opacity:1"
         offset="1"
         id="stop2451" />
    </linearGradient>
    <radialGradient
       r="35"
       fy="147.13304"
       fx="146.95654"
       cy="147.13304"
       cx="146.95654"
       gradientTransform="matrix(1.3819496,0,0,1.3819495,-123.20639,871.93206)"
       gradientUnits="userSpaceOnUse"
       id="radialGradient3302"
       xlink:href="#linearGradient922" />
    <linearGradient
       id="linearGradient922">
      <stop
         id="stop918"
         offset="0"
         style="stop-color:#9d1c6f;stop-opacity:1" />
      <stop
         id="stop920"
         offset="1"
         style="stop-color:#590f66;stop-opacity:1" />
    </linearGradient>
    <linearGradient
       gradientTransform="matrix(1.2899716,0,0,1.3262407,-112.25207,877.42334)"
       gradientUnits="userSpaceOnUse"
       y2="99.608566"
       x2="119.384"
       y1="99.608566"
       x1="105.04161"
       id="linearGradient854"
       xlink:href="#linearGradient860" />
    <linearGradient
       gradientTransform="matrix(1.1769529,1.0017683,-1.0253143,1.2123604,-87.96045,731.10768)"
       gradientUnits="userSpaceOnUse"
       y2="126.60291"
       x2="167.58571"
       y1="173.91913"
       x1="136.81311"
       id="linearGradient1360-6"
       xlink:href="#linearGradient2936" />
    <linearGradient
       gradientTransform="matrix(1.3813735,0,0,1.4202124,-255.7872,855.10437)"
       gradientUnits="userSpaceOnUse"
       y2="104.08393"
       x2="133.64702"
       y1="104.08393"
       x1="112.46608"
       id="linearGradient862-2"
       xlink:href="#linearGradient860" />
    <radialGradient
       r="10.743572"
       fy="390.91138"
       fx="495.03906"
       cy="390.91138"
       cx="495.03906"
       gradientTransform="matrix(0.53435898,-0.01315522,0.03475529,1.7611596,-353.02365,322.64834)"
       gradientUnits="userSpaceOnUse"
       id="radialGradient3304-7"
       xlink:href="#linearGradient1019" />
    <linearGradient
       gradientTransform="matrix(1.3813735,0,0,1.4202124,-255.7872,855.10437)"
       gradientUnits="userSpaceOnUse"
       y2="119.1124"
       x2="116.98858"
       y1="119.1124"
       x1="109.17788"
       id="linearGradient878-8"
       xlink:href="#linearGradient860" />
    <linearGradient
       gradientTransform="matrix(1.3813735,0,0,1.4202124,-252.81514,854.97151)"
       gradientUnits="userSpaceOnUse"
       y2="118.32003"
       x2="144.10342"
       y1="118.32003"
       x1="124.89785"
       id="linearGradient914-1"
       xlink:href="#linearGradient912" />
    <linearGradient
       gradientTransform="matrix(1.3813735,0,0,1.4202124,-255.7872,855.10437)"
       y2="115.77173"
       x2="176.97937"
       y1="128.29868"
       x1="130.76288"
       gradientUnits="userSpaceOnUse"
       id="linearGradient1345-9"
       xlink:href="#linearGradient2453" />
    <radialGradient
       r="35"
       fy="147.13304"
       fx="146.95654"
       cy="147.13304"
       cx="146.95654"
       gradientTransform="matrix(1.3819496,0,0,1.3819495,-255.84926,859.66539)"
       gradientUnits="userSpaceOnUse"
       id="radialGradient3302-0"
       xlink:href="#linearGradient922" />
    <linearGradient
       gradientTransform="matrix(1.2899716,0,0,1.3262407,-244.89494,865.15666)"
       gradientUnits="userSpaceOnUse"
       y2="99.608566"
       x2="119.384"
       y1="99.608566"
       x1="105.04161"
       id="linearGradient854-0"
       xlink:href="#linearGradient860" />
  </defs>
  <metadata
     id="metadata4316">
    <rdf:RDF>
      <cc:Work
         rdf:about="">
        <dc:format>image/svg+xml</dc:format>
        <dc:type
           rdf:resource="http://purl.org/dc/dcmitype/StillImage" />
        <dc:title></dc:title>
      </cc:Work>
    </rdf:RDF>
  </metadata>
  <g
     transform="translate(0,-978.5197)"
     id="layer1">
    <path
       id="path832"
       d="m 24.924139,1000.4631 c 5.79338,3.566 10.86338,7.0204 16.54815,8.0187 l -6.46445,10.8111 c -0.77203,-0.6819 -1.29138,-1.1088 -2.0015,-1.7752 -0.0343,-0.032 -0.27799,0.3331 -0.44371,0.227 -0.16754,-0.1071 0.22356,-0.414 0.19427,-0.4416 -0.0243,-0.023 -0.96717,0.7427 -0.89887,0.3435 0.0892,-0.5212 0.52845,-0.4797 0.47648,-0.5755 -0.052,-0.096 -0.36967,0.072 -0.38737,0.054 -0.0813,-0.077 0.3034,-0.3582 0.22289,-0.4352 -6.33657,-6.0648 -9.904179,-11.4671 -8.61879,-16.1106 0.0204,-0.074 -0.8571,-1.33241 -0.43742,-1.31361 0.34333,0.016 0.61678,0.88231 0.73341,0.85781 0.0442,-0.014 -0.024,-1.31751 0.14128,-1.30661 0.35717,0.023 0.48722,1.51941 0.61211,1.51791 0.13842,0 -0.22291,-0.97551 0.0935,-1.02961 0.37717,-0.065 0.18202,0.78981 0.23,1.15751 z"
       style="fill:url(#linearGradient854);fill-opacity:1;stroke:none;stroke-width:0.34606981px;stroke-linecap:butt;stroke-linejoin:miter;stroke-opacity:1" />
    <path
       id="path916"
       d="m 74.029689,1013.7834 c -26.71297,0 -48.36809,21.655 -48.36813,48.3681 4e-5,26.7131 21.65516,48.3683 48.36813,48.3683 26.712981,0 48.368101,-21.6552 48.368141,-48.3683 -4e-5,-26.7131 -21.65516,-48.3682 -48.368141,-48.3681 z"
       style="fill:url(#radialGradient3302);fill-opacity:1;stroke:none;stroke-width:0.72910452;stroke-miterlimit:4;stroke-dasharray:none;stroke-opacity:1" />
    <path
       id="path826-7"
       d="m 37.140819,1031.9042 c -1.12364,1.5097 -3.05163,4.0898 -2.86275,4.1763 0.10757,0.05 0.3318,-0.3992 0.42762,-0.3304 0.0222,0.016 -0.87094,1.2029 -0.76966,1.3011 0.0824,0.08 0.33648,-0.5148 0.4544,-0.4386 0.15673,0.1031 -2.52215,5.1 -3.05757,6.7815 -0.33402,1.0493 -0.0128,3.4161 1.81204,3.3503 1.84066,-0.068 3.90319,-1.6947 4.3898,-3.5205 0.28776,-1.0797 1.28879,-2.9389 2.19376,-4.2971 -0.0446,1.2193 -0.18112,2.944 -0.11357,4.1528 3.316,2.4248 5.99648,1.9357 8.77699,-0.101 0.25172,-0.1847 0.50389,-0.3817 0.7578,-0.5906 0.32821,-0.2702 0.65906,-0.5599 0.99304,-0.8666 0.14002,-0.1285 0.0487,0.5578 0.18997,0.4233 1.20469,-2.2528 3.40471,-4.0957 4.88164,-5.6821 1.09063,-1.1702 7.06691,-2.0159 7.39641,-4.7515 8.2e-4,-0.015 6.2e-4,-0.023 10e-4,-0.031 1.1378,-0.1863 2.3028,-0.3932 3.48925,-0.6145 -4.23011,3.1545 -7.32802,6.0359 -7.27865,6.0802 0.0629,0.057 0.24258,-0.1662 0.30185,-0.1229 0.009,-10e-5 -0.92363,0.7106 -0.82076,0.7962 0.0881,0.074 0.23182,-0.1589 0.32585,-0.09 0.11374,0.084 -2.39917,3.2761 -3.26223,4.7478 0,0 -2.09352,5.2008 1.54993,5.3827 4.92792,0.2458 4.23285,-3.4288 6.28905,-5.2179 2.17479,-1.8929 5.13265,-4.5701 7.95404,-7.153 0.24119,-0.2209 -0.13893,1.2808 0.0997,1.062 0.86267,-1.6514 1.66184,-2.6767 2.95159,-3.8661 0.29997,-0.2765 -0.22934,1.4183 0.0564,1.1541 0.88201,-2.173 2.44387,-3.5979 4.11161,-5.0677 15.17459,-2.5052 31.077621,-2.7104 39.223841,14.329 2.97416,6.221 4.59676,13.031 4.75384,19.9581 1.94438,-19.7925 -2.75589,-39.8799 -14.38237,-52.3188 -0.13755,-0.1473 0.91207,0.3609 0.77258,0.2159 -0.42967,-0.4466 -2.05704,-1.5369 -2.50514,-1.9629 -0.27421,-0.2604 1.2323,0.6728 1.5182,0.4258 0.37496,-0.324 -3.14528,-1.8946 -3.55275,-2.232 -0.14125,-0.1172 0.74676,0.366 1.27356,0.5147 0.3464,0.097 0.43077,-0.101 0.3361,-0.1762 -3.64005,-2.8741 -8.532551,-5.3895 -13.863551,-7.0619 -0.42671,-0.1343 1.64003,-0.088 1.20812,-0.212 -2.60685,-0.25701 -5.43417,-0.97111 -7.79103,-1.36391 -0.64358,-0.1058 2.85157,-0.8889 2.20624,-0.9665 -2.81802,0.3449 -5.87895,0.4285 -8.5479,0.3983 -23.82342,2.39301 -52.61971,9.55691 -41.88869,33.78721 z"
       style="opacity:0.2;fill:#3c1842;fill-opacity:1;stroke:none;stroke-width:0.35588121px;stroke-linecap:butt;stroke-linejoin:miter;stroke-opacity:1" />
    <path
       id="path826"
       d="m 78.600969,994.54959 c -7.90958,-0.1229 -15.30161,2.3511 -22.12989,4.6258 l 1.10717,30.17631 c 19.37299,-2.0753 48.552001,-13.1543 60.247761,12.6271 2.96644,6.5387 4.51273,13.6633 4.53148,20.8783 2.43804,-20.5656 -2.03552,-41.5772 -13.88013,-54.7707 -0.14012,-0.1562 0.94199,0.3945 0.7998,0.2409 -0.438,-0.4743 -2.10909,-1.6435 -2.5667,-2.096 -0.28006,-0.2769 1.269,0.7262 1.57183,0.4752 0.39714,-0.3294 -3.23566,-2.0386 -3.65283,-2.3985 -0.14462,-0.1242 0.76994,0.397 1.31531,0.5627 0.35861,0.1086 0.45079,-0.097 0.35378,-0.1765 -3.72967,-3.0679 -8.770571,-5.78961 -14.285841,-7.64231 -0.44145,-0.1482 1.70903,-0.058 1.26194,-0.1949 -2.70869,-0.322 -5.63716,-1.1247 -8.08274,-1.5829 -0.66783,-0.1242 2.98743,-0.8658 2.31718,-0.9601 -2.94111,0.3001 -6.13004,0.323 -8.90812,0.2357 z"
       style="fill:url(#linearGradient1345);fill-opacity:1;stroke:none;stroke-width:0.37059084px;stroke-linecap:butt;stroke-linejoin:miter;stroke-opacity:1" />
    <path
       id="path834"
       d="m 76.277719,1021.5772 c -8.98221,3.5121 -19.61606,12.8885 -19.52553,12.9735 0.0643,0.062 0.25591,-0.1684 0.31672,-0.1228 0.0104,0 -0.97668,0.7203 -0.87135,0.8114 0.0902,0.078 0.24459,-0.1601 0.34102,-0.085 0.11667,0.09 -2.56617,3.3603 -3.49547,4.8744 0,0 -2.28836,5.3712 1.50112,5.6364 5.12543,0.3588 4.47895,-3.4809 6.6571,-5.3009 2.30378,-1.9249 5.43924,-4.651 8.43062,-7.2813 0.25572,-0.2248 -0.17162,1.3312 0.0814,1.1084 0.93266,-1.7013 1.78646,-2.7526 3.15411,-3.964 0.31808,-0.2818 -0.26892,1.4717 0.0341,1.2028 1.2521,-2.9154 3.67141,-4.4904 5.98686,-6.5664"
       style="fill:url(#linearGradient914);fill-opacity:1;stroke:none;stroke-width:0.37059084px;stroke-linecap:butt;stroke-linejoin:miter;stroke-opacity:1" />
    <path
       id="path836"
       d="m 34.726109,1028.2794 c -1.04596,1.3563 -3.72844,4.7545 -3.50989,4.8599 0.11099,0.054 0.35358,-0.4095 0.45191,-0.3358 0.0227,0.018 -0.93171,1.2345 -0.82833,1.339 0.0842,0.085 0.36103,-0.5292 0.4822,-0.4473 0.16103,0.1101 -2.7329,5.2568 -3.32547,6.9964 -0.36969,1.0855 -0.0849,3.5564 1.81664,3.5261 1.91775,-0.031 4.09955,-1.683 4.64435,-3.5736 0.55347,-1.9207 3.35361,-6.241 3.96888,-6.1206"
       style="fill:url(#linearGradient878);fill-opacity:1;stroke:none;stroke-width:0.37059084px;stroke-linecap:butt;stroke-linejoin:miter;stroke-opacity:1" />
    <path
       id="path828-5"
       d="m 60.875509,997.74099 c -1.49055,0.4715 -2.96365,0.9563 -4.40443,1.4362 l 1.10717,30.17431 c 1.82611,-0.2523 3.68095,-0.5271 5.54801,-0.7897 0.38418,-0.3897 0.64566,-0.8305 0.71741,-1.3398 1.04886,-7.9795 0.33654,-14.6626 -1.69966,-22.2781 0.21046,-0.4327 -0.24085,-3.6029 -1.2685,-7.20291 z"
       style="fill:url(#radialGradient3304);fill-opacity:1;stroke:none;stroke-width:0.37058043px;stroke-linecap:butt;stroke-linejoin:miter;stroke-opacity:1" />
    <path
       id="path828"
       d="m 44.748929,1004.2046 c -5.77468,4.0191 -19.28646,11.9828 -7.99209,29.0468 -0.10614,0.5341 -0.16833,1.3215 -0.19434,2.3299 -0.004,0.176 0.17496,-0.3562 0.1726,-0.1663 -10e-4,0.1612 -0.007,0.34 -0.0128,0.5324 -10e-4,0.054 0.13757,-0.2678 0.13571,-0.2123 -0.0431,1.251 -1.15747,3.7268 -0.23187,4.8024 2.79024,3.2424 6.20224,2.1401 9.13967,0.077 0.26593,-0.1869 0.53298,-0.3869 0.8017,-0.599 0.34736,-0.2743 0.69751,-0.5688 1.05163,-0.8813 0.14846,-0.1314 0.0389,0.5817 0.18875,0.4445 1.30132,-2.3201 3.63089,-4.1931 5.2017,-5.8138 1.15995,-1.1954 7.39911,-1.9509 7.79934,-4.7921 0.14243,-1.0838 -0.22378,-4.7567 0.006,-4.7753 0.20159,-0.017 0.0695,0.7054 0.31185,0.7205 0.27449,0.017 0.0954,-0.8884 0.13566,-0.8833 0.0569,0 0.36685,0.7879 0.43033,0.7867 0.31367,0 -0.71732,-3.7118 -0.52645,-3.7175 0.24732,0 0.20312,0.7142 0.51554,0.7177 0.16591,0 -1.50422,-5.1673 -1.07987,-5.1573 0.34448,0.015 0.44716,0.9798 0.82275,1.0648 0.31001,0.07 -1.45409,-7.6669 -2.18693,-10.5421 -0.02,-0.078 0.18067,-0.1058 0.22776,-0.1773 0.03,-0.046 -0.11349,-0.1464 -0.0562,-0.1695 0.0655,-0.027 0.26218,0.057 0.28238,0.016 0.0705,-0.1414 -0.49154,-0.3077 -0.38414,-0.4755 0.0515,-0.08 -0.008,-0.3837 0.0531,-0.4814 0.35381,-0.5671 0.92086,-1.1335 0.70365,-1.1755 -0.24332,-0.047 -0.52727,0.6284 -0.77919,0.6217 -0.12966,0 0.41632,-1.4155 0.30098,-1.4372 -0.27618,-0.051 -0.60949,0.6824 -0.846,0.7995 -0.0747,0.038 0.3784,-0.6724 0.0725,-0.6802 -0.0557,0 -0.32459,0.4156 -0.40803,0.2155 -0.93088,-2.2327 -3.85889,-14.54061 -7.8687,-16.02561 -0.0799,-0.03 0.0548,-1.0893 -0.18598,-1.1047 -0.0725,0 -0.33322,1.1309 -0.57373,1.0722 -0.23468,-0.057 -0.44852,-1.3106 -0.57632,-1.1796 -0.13916,0.1428 0.016,1.0511 -0.0695,1 -0.46754,-0.2797 -0.67561,-0.4723 -0.82066,-0.4652 -0.36296,0.019 0.63206,0.6665 0.32079,0.8635 -0.15634,0.099 -0.70633,-0.087 -0.85038,0.052 -0.0849,0.082 0.23226,0.4753 0.1515,0.5693 -2.97405,3.4634 -3.18264,15.18161 -3.18264,15.18161 z"
       style="fill:url(#linearGradient862);fill-opacity:1;stroke:none;stroke-width:0.37059084px;stroke-linecap:butt;stroke-linejoin:miter;stroke-opacity:1" />
    <path
       id="path838"
       d="m 35.598379,1031.4564 c 0.46531,-0.12 0.88161,0.1634 1.30531,0.3859 l -0.86477,0.2349 z"
       style="fill:#501616;stroke:none;stroke-width:0.37059084px;stroke-linecap:butt;stroke-linejoin:miter;stroke-opacity:1" />
    <path
       id="path840"
       d="m 41.488609,1029.6615 c 1.26541,-1.7844 2.3761,-3.781 3.98122,-5.0997 l 0.48949,0.2348 c -1.66218,1.4008 -3.04346,3.1624 -4.47071,4.8649 z"
       style="fill:#501616;stroke:none;stroke-width:0.37059084px;stroke-linecap:butt;stroke-linejoin:miter;stroke-opacity:1" />
    <path
       id="path844"
       d="m 37.991589,1039.488 c -0.14697,-0.1477 -0.107,-0.5188 0.0236,-0.6804 0.48442,-0.5998 0.7599,-1.0786 1.90477,-1.1483 0.12941,-0.015 0.23277,0 0.35998,0.08 0.0849,0.057 0.0884,0.12 0.1135,0.2248 0.0635,0.2649 0.14839,0.5304 0.013,0.7576 -0.41881,0.7035 -0.0595,0.8947 -0.012,1.1341 -0.0623,0.1908 -0.15674,0.3747 -0.52212,0.5034 -0.87046,-0.034 -1.28456,-0.2716 -1.88077,-0.8708 z"
       style="fill:#550000;stroke:none;stroke-width:0.37059084px;stroke-linecap:butt;stroke-linejoin:miter;stroke-opacity:1" />
    <path
       id="path846"
       d="m 40.770689,1041.8406 -0.0266,-0.054 c 1.46923,-0.675 2.85623,-1.6316 4.2356,-2.6142 l 0.0984,0.1524 c -1.38894,0.9062 -2.77071,1.8229 -4.30757,2.5163 z"
       style="fill:#501616;stroke:none;stroke-width:0.37059084px;stroke-linecap:butt;stroke-linejoin:miter;stroke-opacity:1" />
    <path
       id="path1352-1"
       d="m 105.62826,1071.8029 c -0.1936,-0.2089 -2.17201,-1.8324 -1.67773,-1.3548 2.01035,1.9426 1.20908,9.33 -3.32714,14.8214 -3.699201,4.4782 -16.409411,8.8517 -22.009771,0.05 3.13694,1.6548 6.3703,1.9662 9.13435,1.4612 0.69116,-0.1257 -1.0302,-0.6451 -0.40653,-0.8649 1.31325,-0.015 2.4522,-0.1455 3.46957,-0.4682 0.29869,-0.096 -1.22308,-0.084 -0.94406,-0.2145 2.02205,-0.1372 3.27801,-1.0288 4.48119,-2.2796 5.04871,-7.6511 2.73109,-17.4907 -7.98777,-19.1036 -4.73265,-0.4274 -10.62565,1.4408 -16.33179,4.7114 -0.47698,0.2731 1.47601,0.1542 1.00243,0.4466 -3.3829,0.6941 -6.21831,2.8785 -8.55593,4.81 -0.39864,0.3308 2.13238,-0.1868 1.74363,0.1559 -11.26075,6.0741 -17.82339,23.3086 -12.80309,30.9406 -3.31537,0.1 -8.05552,-0.2076 -10.53809,-0.4832 -4.35423,-0.4832 -7.56091,-2.5924 -11.09618,-5.369 -0.72027,-0.5908 2.77355,1.4407 2.1846,0.753 -1.41859,-2.7013 -3.36029,-3.4911 -4.95995,-6.1004 -0.20323,-0.4174 2.28786,1.7596 2.11533,1.3235 -0.58206,-3.8511 -2.83744,-8.2711 -3.0968,-11.9854 -0.007,-0.7445 1.581,1.9571 1.62691,1.1948 1.34855,-6.7633 4.5334,-10.6183 7.49312,-16.3387 0.46294,-0.4891 0.12214,2.152 0.62362,1.6744 14.80272,-14.1054 45.78853,-23.0777 58.74123,-13.7448 1.66582,1.6387 3.63326,2.5758 5.37148,4.2315 0.258961,0.2722 -1.78133,-0.9771 -1.52481,-0.684 1.49478,2.869 4.106061,4.2416 5.964601,6.8332 0.20554,0.3395 -2.0797,-1.3549 -1.87636,-0.9995 1.10742,1.9362 2.172,4.1244 3.18418,6.5828 z"
       style="opacity:0.3;fill:#3c1842;fill-opacity:1;stroke:none;stroke-width:0.39002541px;stroke-linecap:butt;stroke-linejoin:miter;stroke-opacity:1" />
    <path
       id="path1352"
       d="m 109.67874,1070.8178 c -0.20152,-0.2255 -2.27116,-1.9903 -1.75552,-1.4728 2.09719,2.1041 1.09818,9.9372 -3.83136,15.6812 -4.01991,4.6842 -17.612031,9.0769 -23.386511,-0.3874 3.29994,1.8208 6.72918,2.2165 9.6761,1.7351 0.73693,-0.12 -1.08169,-0.7059 -0.41464,-0.9274 1.39553,0.014 2.60843,-0.1043 3.69575,-0.4283 0.31929,-0.096 -1.29785,-0.1143 -0.99876,-0.2467 2.15119,-0.1042 3.50347,-1.0276 4.80684,-2.3326 5.517211,-8.0282 3.251391,-18.5292 -8.10523,-20.4572 -5.01992,-0.5487 -11.31863,1.3184 -17.4468,4.6791 -0.51226,0.2809 1.56519,0.1933 1.05616,0.4946 -3.60822,0.67 -6.66453,2.9343 -9.18686,4.9397 -0.43019,0.3437 2.26946,-0.1549 1.84949,0.2004 -12.08603,6.229 -19.40335,24.4093 -14.22178,32.6188 -3.52458,0.04 -8.5549,-0.3816 -11.18715,-0.7242 -4.61673,-0.6006 -7.98171,-2.9055 -11.68246,-5.9263 -0.75347,-0.6423 2.91814,1.5862 2.30611,0.8436 -1.45326,-2.8986 -3.50055,-3.7765 -5.14804,-6.581 -0.20759,-0.4476 2.39569,1.9153 2.2211,1.4485 -0.54147,-4.1034 -2.84949,-8.8446 -3.05081,-12.7963 0.007,-0.7913 1.6407,2.111 1.70473,1.3019 1.56801,-7.159 5.02899,-11.1913 8.28806,-17.2102 0.50165,-0.5103 0.0869,2.289 0.6291,1.7914 16.00994,-14.6909 49.11191,-23.6047 62.68769,-13.4297 1.73718,1.7745 3.808881,2.8093 5.622661,4.6033 0.26971,0.2946 -1.87315,-1.0737 -1.60647,-0.7573 1.53089,3.0785 4.27795,4.5888 6.20088,7.3797 0.21158,0.3648 -2.18263,-1.4812 -1.97368,-1.0995 1.13795,2.0793 2.22531,4.4256 3.25164,7.0579 z"
       style="fill:url(#linearGradient1360);fill-opacity:1;stroke:none;stroke-width:0.41447791px;stroke-linecap:butt;stroke-linejoin:miter;stroke-opacity:1" />
    <path
       id="path1352-7"
       d="m 104.09186,1085.0262 c -4.01991,4.6841 -17.612028,9.0768 -23.386514,-0.3875 3.299946,1.8209 6.729181,2.2165 9.676108,1.7352 0.736926,-0.12 -1.08169,-0.7059 -0.414647,-0.9274 1.395532,0.014 2.608435,-0.1043 3.695753,-0.4283 0.319295,-0.096 -1.297846,-0.1143 -0.998766,-0.2467 2.151194,-0.1043 3.503469,-1.0276 4.806845,-2.3326 0.902755,-1.2833 1.427205,-2.4869 1.427205,-2.4869 0.334715,0.1432 -0.60504,3.124 0.02094,3.5705 0.130785,0.093 1.033901,-1.2193 1.033901,-1.2193 0.258655,0.093 0.200665,1.4001 0.645725,0.8015 1.01037,-1.3585 2.14993,-3.3745 2.14993,-3.3745 0.19183,0.064 -0.67949,2.8264 -0.48622,2.9821 0.23429,0.1887 0.60234,-0.6008 0.60234,-0.6008 0.15363,0.048 0.0958,0.7261 0.0798,0.9308 -0.0277,0.3527 0.6296,-0.2997 0.83132,-0.4124 0.23497,-0.1314 -0.1953,1.3708 -0.11067,1.5083 0.10592,0.172 2.04844,-1.984 2.36025,-1.7679 0,0 -0.88719,1.4477 -1.93326,2.6559 z"
       style="fill:#501616;fill-opacity:1;stroke:none;stroke-width:0.41447791px;stroke-linecap:butt;stroke-linejoin:miter;stroke-opacity:1" />
  </g>
</svg>
